Division,WeightClassKg,Place,Name,Team,BodyweightKg,Best3SquatKg,Best3BenchKg,Best3DeadliftKg,TotalKg,Equipment,Event,Sex
Boys,51.71,1,Buster Dodge,Refugio,46.54,74.84,45.36,83.91,204.12,Single-ply,SBD,M
Boys,55.79,1,Darion McMahan,Stockdale,55.34,142.88,77.11,138.35,358.34,Single-ply,SBD,M
Boys,59.87,1,Carbe Seaman,Victoria St. Joseph,59.51,117.93,104.33,151.95,374.21,Single-ply,SBD,M
Boys,59.87,2,Peter Martinez,Yorktown,59.51,117.93,83.91,163.29,365.14,Single-ply,SBD,M
Boys,59.87,3,Lucas Alvear,Runge,59.51,122.47,74.84,136.08,333.39,Single-ply,SBD,M
Boys,59.87,4,Kristian Grifaldo,Edna,57.61,120.2,68.04,117.93,306.17,Single-ply,SBD,M
Boys,59.87,5,Glenn Wineman,Refugio,59.87,58.97,58.97,99.79,217.72,Single-ply,SBD,M
Boys,59.87,6,Stephen Boedeker,Victoria St. Joseph,57.79,61.23,47.63,90.72,199.58,Single-ply,SBD,M
Boys,67.13,1,Gino Dodge,Refugio,64.32,183.7,102.06,183.7,469.47,Single-ply,SBD,M
Boys,67.13,2,Jacob Tumlinson,Victoria St. Joseph,67.13,154.22,113.4,170.1,437.72,Single-ply,SBD,M
Boys,67.13,3,Jeremy Jarrett,Edna,66.13,151.95,92.99,174.63,419.57,Single-ply,SBD,M
Boys,67.13,4,Martin Armenta,Victoria Memorial,66.32,142.88,92.99,158.76,394.63,Single-ply,SBD,M
Boys,67.13,5,Aj Bustas,Cuero,61.05,129.27,88.45,136.08,353.8,Single-ply,SBD,M
Boys,67.13,6,Cameron Sternadal,Refugio,62.96,133.81,70.31,129.27,333.39,Single-ply,SBD,M
Boys,67.13,7,Brandon Thompson,Refugio,61.42,124.74,65.77,129.27,319.78,Single-ply,SBD,M
Boys,67.13,8,Joe Alvarado,Victoria Memorial,62.05,102.06,83.91,127.01,312.98,Single-ply,SBD,M
Boys,67.13,9,Rex Marin,Victoria Memorial,64.23,92.99,72.57,142.88,308.44,Single-ply,SBD,M
Boys,67.13,10,Kalvin Ross,Victoria Memorial,65.77,108.86,72.57,127.01,308.44,Single-ply,SBD,M
Boys,67.13,11,Tristan Tomas,Edna,61.51,86.18,65.77,124.74,276.69,Single-ply,SBD,M
Boys,67.13,12,Dj DeLaGarza,Victoria Memorial,63.23,90.72,70.31,108.86,269.89,Single-ply,SBD,M
Boys,67.13,DQ,Patrick Jones,Runge,64.59,,65.77,,,Single-ply,SBD,M
Boys,67.13,DQ,Randy Solis,Runge,64.05,,,,,Single-ply,SBD,M
Boys,67.13,DQ,Chris Brasher,Runge,66.86,,77.11,,,Single-ply,SBD,M
Boys,74.84,1,Nathan Markiewicz,Edna,71.03,190.51,117.93,204.12,512.56,Single-ply,SBD,M
Boys,74.84,2,Jonathan Hennessey,Victoria St. Joseph,73.03,170.1,117.93,170.1,458.13,Single-ply,SBD,M
Boys,74.84,3,Tyler Sample,Edna,73.57,174.63,102.06,181.44,458.13,Single-ply,SBD,M
Boys,74.84,4,Colton Kalmus,Victoria St. Joseph,73.57,142.88,92.99,192.78,428.64,Single-ply,SBD,M
Boys,74.84,5,Nic Wallace,Victoria Memorial,73.48,158.76,97.52,167.83,424.11,Single-ply,SBD,M
Boys,74.84,6,Terry Ramey,Victoria Memorial,73.94,158.76,88.45,176.9,424.11,Single-ply,SBD,M
Boys,74.84,7,Cole Stremmel,Yorktown,73.21,158.76,95.25,163.29,417.3,Single-ply,SBD,M
Boys,74.84,8,Denzel Banks,Edna,71.67,142.88,79.38,151.95,374.21,Single-ply,SBD,M
Boys,74.84,9,Jake Heryford,Refugio,69.85,133.81,92.99,136.08,362.87,Single-ply,SBD,M
Boys,74.84,10,Marcus Bryan,Runge,73.94,124.74,72.57,140.61,337.93,Single-ply,SBD,M
Boys,74.84,11,Derek Franke,Yorktown,72.67,117.93,79.38,136.08,333.39,Single-ply,SBD,M
Boys,74.84,12,Lane Strieber,Yorktown,70.22,120.2,74.84,136.08,331.12,Single-ply,SBD,M
Boys,74.84,13,Jack Gumm,Refugio,67.59,124.74,79.38,124.74,328.85,Single-ply,SBD,M
Boys,74.84,14,Andrew Garcia,Refugio,68.22,113.4,74.84,129.27,317.51,Single-ply,SBD,M
Boys,82.1,1,Richard Rodriguez,Victoria Memorial,78.74,151.95,142.88,174.63,469.47,Single-ply,SBD,M
Boys,82.1,2,Cody Valle,Victoria St. Joseph,78.83,185.97,88.45,165.56,439.98,Single-ply,SBD,M
Boys,82.1,3,Matt Hartman #3,Victoria Memorial,81.19,156.49,92.99,183.7,433.18,Single-ply,SBD,M
Boys,82.1,4,Coleton Jacob,Cuero,80.38,136.08,106.59,181.44,424.11,Single-ply,SBD,M
Boys,82.1,5,Jake Henderson #2,Refugio,80.1,147.42,106.59,158.76,412.77,Single-ply,SBD,M
Boys,82.1,6,Dylan Edgerton,Victoria Memorial,76.29,106.59,108.86,172.37,387.82,Single-ply,SBD,M
Boys,82.1,7,Chad Brockman,Victoria St. Joseph,77.75,142.88,83.91,154.22,381.02,Single-ply,SBD,M
Boys,82.1,8,Trevor Baumann,Stockdale,77.02,122.47,61.23,142.88,326.59,Single-ply,SBD,M
Boys,82.1,9,Matthew Hall,Victoria St. Joseph,76.02,106.59,79.38,124.74,310.71,Single-ply,SBD,M
Boys,82.1,10,Josh Guerra,Victoria St. Joseph,77.93,129.27,61.23,104.33,294.84,Single-ply,SBD,M
Boys,89.81,1,Maison Rickman,Cuero,88.72,188.24,124.74,231.33,544.31,Single-ply,SBD,M
Boys,89.81,2,Chris Brockman,Victoria St. Joseph,85.28,204.12,136.08,192.78,532.97,Single-ply,SBD,M
Boys,89.81,3,Tanner Hoffman,Cuero,88.81,183.7,124.74,204.12,512.56,Single-ply,SBD,M
Boys,89.81,4,Jason Castillo,Cuero,86.82,181.44,117.93,181.44,480.81,Single-ply,SBD,M
Boys,89.81,5,Korry Huddleston,Yorktown,88.27,165.56,117.93,181.44,464.93,Single-ply,SBD,M
Boys,99.79,6,Kolton Kilgore,Victoria St. Joseph,89.99,154.22,108.86,183.7,446.79,Single-ply,SBD,M
Boys,89.81,7,Clarke Brockman,Victoria St. Joseph,88,165.56,104.33,170.1,439.98,Single-ply,SBD,M
Boys,89.81,8,Alex Valdez,Refugio,85.82,165.56,102.06,158.76,426.38,Single-ply,SBD,M
Boys,89.81,9,Patrick Washburn,Stockdale,87.18,147.42,102.06,149.69,399.16,Single-ply,SBD,M
Boys,89.81,10,Roger Alvarez,Runge,86.09,115.67,81.65,145.15,342.46,Single-ply,SBD,M
Boys,89.81,11,Harold Rios,Runge,88.09,122.47,68.04,138.35,328.85,Single-ply,SBD,M
Boys,89.81,DQ,John Resendez,Victoria St. Joseph,86.27,111.13,,,,Single-ply,SBD,M
Boys,99.79,1,Logan Pickett,Cuero,97.25,213.19,142.88,204.12,560.19,Single-ply,SBD,M
Boys,99.79,2,Logan Myers,Refugio,96.16,165.56,88.45,145.15,399.16,Single-ply,SBD,M
Boys,99.79,3,Robby Gonzales,Victoria St. Joseph,97.89,113.4,79.38,142.88,335.66,Single-ply,SBD,M
Boys,99.79,DQ,Seferino Vargas,Refugio,92.08,192.78,,,,Single-ply,SBD,M
Boys,109.77,1,Preston Turner,Victoria Memorial,109.68,278.96,204.12,258.55,741.62,Single-ply,SBD,M
Boys,109.77,2,Michael Ponton,Victoria Memorial,107.77,149.69,97.52,208.65,455.86,Single-ply,SBD,M
Boys,109.77,3,Dillan Johnson,Yorktown,102.33,142.88,92.99,142.88,378.75,Single-ply,SBD,M
Boys,109.77,DQ,Patrick Osborn,Victoria St. Joseph,102.6,124.74,68.04,,,Single-ply,SBD,M
Boys,109.77,DQ,Garrett Egg,Cuero,105.23,172.37,,,,Single-ply,SBD,M
Boys,124.74,1,Dylan Klare,Refugio,112.31,260.82,174.63,215.46,650.91,Single-ply,SBD,M
Boys,124.74,2,Kohlton Tegeler,Victoria Memorial,111.04,226.8,149.69,226.8,603.28,Single-ply,SBD,M
Boys,124.74,3,Chris Caskey,Cuero,124.56,238.14,136.08,181.44,555.65,Single-ply,SBD,M
Boys,124.74,4,Tyler Egger,Yorktown,122.74,215.46,129.27,185.97,530.7,Single-ply,SBD,M
Boys,124.74,5,Justin Rooks,Edna,115.94,195.04,124.74,181.44,501.22,Single-ply,SBD,M
Boys,124.74,6,Wade Perry,Victoria St. Joseph,115.03,183.7,88.45,213.19,485.34,Single-ply,SBD,M
Boys,124.74,7,Mac Long,Edna,119.02,149.69,122.47,163.29,435.45,Single-ply,SBD,M
Boys,124.74,8,Robby Medrano,Victoria St. Joseph,120.38,167.83,72.57,181.44,421.84,Single-ply,SBD,M
Boys,124.74,9,Charlie Holloway,Victoria St. Joseph,112.76,136.08,92.99,158.76,387.82,Single-ply,SBD,M
Boys,124.74,10,Chris Sliger,Yorktown,116.85,133.81,86.18,165.56,385.55,Single-ply,SBD,M
Boys,124.74,11,Logan Robinson,Edna,110.95,136.08,72.57,174.63,383.29,Single-ply,SBD,M
Boys,124.74,12,Michael Isaac,Edna,124.56,106.59,72.57,181.44,360.61,Single-ply,SBD,M
Boys,124.74+,1,Randy Sierra,Cuero,125.65,190.51,92.99,192.78,476.27,Single-ply,SBD,M
Boys,124.74+,2,Derek Fiew,Edna,135.62,192.78,106.59,136.08,435.45,Single-ply,SBD,M
Boys,124.74+,3,Qwelian Tanner,Victoria Memorial,146.51,142.88,104.33,149.69,396.89,Single-ply,SBD,M
