Place,Name,Sex,BirthDate,Age,Equipment,Division,BodyweightKg,WeightClassKg,Squat1Kg,Squat2Kg,Squat3Kg,Best3SquatKg,Bench1Kg,Bench2Kg,Bench3Kg,Best3BenchKg,Deadlift1Kg,Deadlift2Kg,Deadlift3Kg,Best3DeadliftKg,TotalKg,Event
1,Ami Fullalove,F,1980-06-07,41,Wraps,F-M1,93.5,110,-112.5,120,130,130,72.5,-77.5,77.5,77.5,135,150,-160,150,357.5,SBD
1,Sophie Smart,F,1991-08-09,30,Wraps,F-O,50.8,52,105,-112.5,-112.5,105,52.5,57.5,-60,57.5,130,140,-145,140,302.5,SBD
1,Elaine Whittaker,F,1997-03-30,24,Wraps,F-O,55.6,56,75,87.5,-100,87.5,35,45,47.5,47.5,100,115,-125,115,250,SBD
1,Ellen Freeborn,F,1991-08-24,30,Wraps,F-O,59.7,60,160,-170,-170,160,75,-80,80,80,160,175,182.5,182.5,422.5,SBD
1,Zoe Eales,F,1997-02-25,24,Wraps,F-O,66,67.5,105,110,-115,110,55,60,62.5,62.5,115,125,130,130,302.5,SBD
2,Naomi Prosser,F,1992-11-24,28,Wraps,F-O,63,67.5,105,-110,-110,105,80,85,-87.5,85,90,,,90,280,SBD
3,Tea Clark,F,2001-08-04,20,Wraps,F-O,63.7,67.5,45,55,62.5,62.5,35,42.5,-45,42.5,70,85,95,95,200,SBD
1,Hannah Hirstwood,F,1990-11-27,30,Wraps,F-O,74.6,75,87.5,95,105,105,45,50,52.5,52.5,60,,,60,217.5,SBD
DQ,Anderson Mckee,M,1938-04-18,83,Wraps,M-M9,87.6,90,-110,-110,-110,,-10,-10,-10,,-10,-10,-10,,,SBD
1,Sam Frew,M,1997-05-13,24,Wraps,M-O,73.6,75,-220,220,237.5,237.5,120,127.5,132.5,132.5,220,240,250,250,620,SBD
1,Louis Herbert,M,1994-01-01,27,Wraps,M-O,82,82.5,180,205,225,225,130,140,-142.5,140,265,290,-300,290,655,SBD
2,Will Bennetts,M,1995-10-27,25,Wraps,M-O,80.3,82.5,185,205,215,215,122.5,130,135,135,220,237.5,250,250,600,SBD
3,Dan Fellowes,M,1990-02-04,31,Wraps,M-O,81.4,82.5,180,-200,200,200,90,-100,100,100,170,200,210,210,510,SBD
1,Luke Whitford,M,1988-10-09,32,Wraps,M-O,89.5,90,260,-280,-280,260,-160,170,180,180,275,300,317.5,317.5,757.5,SBD
2,Dan Hookway,M,1989-07-13,32,Wraps,M-O,88.9,90,235,255,265,265,142.5,152.5,160,160,235,255,270,270,695,SBD
3,Tyrone Burman,M,1990-04-27,31,Wraps,M-O,85.9,90,200,215,222.5,222.5,140,-147.5,147.5,147.5,225,245,-255,245,615,SBD
4,Liam Stevenson,M,1994-11-05,26,Wraps,M-O,88.2,90,190,205,-215,205,130,140,-145,140,220,240,255,255,600,SBD
5,Otis Dixon,M,1996-02-29,25,Wraps,M-O,89.5,90,190,205,212.5,212.5,130,140,147.5,147.5,220,235,240,240,600,SBD
6,Jake Lloyd,M,1993-10-24,27,Wraps,M-O,88.2,90,190,205,210,210,130,135,140,140,200,215,220,220,570,SBD
7,James Mason,M,1996-08-13,25,Wraps,M-O,85.9,90,165,185,195,195,105,115,122.5,122.5,185,210,222.5,222.5,540,SBD
8,Max Phillips,M,1993-01-04,28,Wraps,M-O,89.2,90,175,200,-215,200,110,117.5,122.5,122.5,180,200,215,215,537.5,SBD
1,Adam Ross,M,1991-08-26,30,Wraps,M-O,97.8,100,260,270,-280,270,200,-210,-210,200,290,310,320,320,790,SBD
2,Greg Steele #1,M,1994-11-17,26,Wraps,M-O,97.9,100,230,240,250,250,140,150,160,160,240,250,260,260,670,SBD
3,Sam Cook #3,M,1993-09-21,27,Wraps,M-O,98.6,100,220,-230,235,235,140,145,150,150,225,240,250,250,635,SBD
1,Matthew Fealey,M,1980-06-17,41,Wraps,M-O,105.6,110,270,-292.5,-295,270,180,190,-200,190,275,-290,-295,275,735,SBD
2,Jon Saunders,M,1992-01-10,29,Wraps,M-O,102.8,110,220,240,250,250,140,150,160,160,230,260,290,290,700,SBD
3,Peter Wheeler,M,1993-05-19,28,Wraps,M-O,106.2,110,220,230,-235,230,140,150,160,160,-230,230,240,240,630,SBD
4,Jacob Murphy,M,1994-09-11,26,Wraps,M-O,105,110,175,185,195,195,130,137.5,145,145,200,215,230,230,570,SBD
1,Liam Evett,M,1994-01-16,27,Wraps,M-O,123.6,125,280,295,-300,295,142.5,150,155,155,300,317.5,-325,317.5,767.5,SBD
1,Jaidan Prowse,M,2002-09-02,19,Wraps,M-T3,82.4,82.5,210,230,-242.5,230,140,-147.5,-147.5,140,225,245,257.5,257.5,627.5,SBD
1,Jacob Colgan,M,1997-03-31,24,Wraps,M-O,88.4,90,157.5,-165,-175,157.5,100,-107.5,-107.5,100,197.5,210,220,220,477.5,SBD
2,Cian Mcdonough,M,2003-07-31,18,Wraps,M-T3,83.8,90,150,-162.5,-162.5,150,82.5,90,-92.5,90,155,170,180,180,420,SBD
1,Owen Treloar,M,1998-03-06,23,Raw,M-J,90.7,100,180,190,-200,190,120,127.5,132.5,132.5,220,230,240,240,562.5,SBD
2,Joshua Swarbrick,M,2000-05-08,21,Wraps,M-J,97,100,175,205,212.5,212.5,110,120,-132.5,120,200,220,230,230,562.5,SBD
1,Jack Grose-Freeman,M,1998-07-27,23,Wraps,M-J,108.2,110,200,220,240,240,125,140,150,150,-200,220,245,245,635,SBD
1,Thomas Head,M,1998-10-23,22,Wraps,M-J,147.5,140+,-265,265,-280,265,200,-215,-215,200,270,290,-300,290,755,SBD
1,Liam Wheeler,M,1992-06-17,29,Raw,M-O,119.3,125,,,,,180,-192.5,-192.5,180,280,300,310,310,490,BD
1,Martyn O'Shea,M,1990-06-09,31,Raw,M-O,122,125,,,,,210,220,-227.5,220,,,,,220,B
1,Scott Prestwood,M,1986-07-28,35,Raw,M-O,98.3,100,,,,,-180,180,190,190,,,,,190,B
