Division,WeightClassKg,Place,Name,Team,BodyweightKg,Best3SquatKg,Best3BenchKg,Best3DeadliftKg,TotalKg,Equipment,Event,Sex,BirthDate
Boys,51.71,1,Alex Garcia #2,Cotulla,48.99,142.88,88.45,145.15,376.48,Single-ply,SBD,M,
Boys,51.71,2,Angelo Legaspe,San Antonio Cole,51.71,124.74,63.5,138.35,326.59,Single-ply,SBD,M,
Boys,51.71,3,Fabian Young,Blanco,51.44,111.13,68.04,142.88,322.05,Single-ply,SBD,M,
Boys,51.71,4,Anthony Garza,Natalia,50.53,106.59,52.16,113.4,272.16,Single-ply,SBD,M,
Boys,51.71,5,Chris Cancino,San Antonio Cole,48.26,92.99,56.7,108.86,258.55,Single-ply,SBD,M,
Boys,51.71,6,Aj Acosta,Comal Canyon Lake,47.9,90.72,43.09,104.33,238.14,Single-ply,SBD,M,
Boys,55.79,1,Joseph Salazar,Cotulla,55.66,161.03,102.06,174.63,437.72,Single-ply,SBD,M,
Boys,55.79,2,Jacob Garcia,Cotulla,52.62,131.54,97.52,151.95,381.02,Single-ply,SBD,M,
Boys,55.79,3,Isaac Moya,Blanco,55.38,124.74,70.31,127.01,322.05,Single-ply,SBD,M,
Boys,55.79,4,Gus Puente,Devine,54.48,111.13,61.23,129.27,301.64,Single-ply,SBD,M,
Boys,55.79,5,Thomas Dorman,Comal Canyon Lake,53.93,111.13,61.23,127.01,299.37,Single-ply,SBD,M,
Boys,55.79,6,Amadeus Jimenez,San Antonio Kennedy,55.66,108.86,61.23,129.27,299.37,Single-ply,SBD,M,
Boys,59.87,1,Dedrick Querner,Jourdanton,59.6,185.97,104.33,208.65,498.95,Single-ply,SBD,M,
Boys,59.87,2,Thomas White,Wimberley,59.01,156.49,99.79,176.9,433.18,Single-ply,SBD,M,
Boys,59.87,3,Christian Salazar,San Antonio Kennedy,56.74,167.83,79.38,170.1,417.3,Single-ply,SBD,M,
Boys,59.87,4,Donovan Hawkins,Natalia,56.84,165.56,74.84,158.76,399.16,Single-ply,SBD,M,
Boys,59.87,5,Jose Gonzalez #10,Cotulla,57.2,136.08,79.38,165.56,381.02,Single-ply,SBD,M,
Boys,59.87,6,Ernesto Consuegra,Cotulla,59.74,136.08,79.38,161.03,376.48,Single-ply,SBD,M,
Boys,59.87,7,Yahil Sostre,San Antonio Cole,59.87,133.81,72.57,151.95,358.34,Single-ply,SBD,M,
Boys,59.87,8,Wyatt Owens,Natalia,59.69,133.81,68.04,154.22,356.07,Single-ply,SBD,M,
Boys,59.87,9,Noah Gilkey,Natalia,58.65,133.81,63.5,129.27,326.59,Single-ply,SBD,M,
Boys,59.87,10,Marco Morales,Natalia,58.33,115.67,74.84,124.74,315.25,Single-ply,SBD,M,
Boys,59.87,11,Joe Lopez,Blanco,57.83,106.59,54.43,104.33,265.35,Single-ply,SBD,M,
Boys,59.87,DQ,Nacious Jacquez,San Antonio Kennedy,57.88,124.74,,,,Single-ply,SBD,M,
Boys,59.87,DQ,Cody Heckel,Wimberley,58.06,129.27,,,,Single-ply,SBD,M,
Boys,59.87,DQ,Brandon Carrillo,Wimberley,59.24,113.4,,,,Single-ply,SBD,M,
Boys,67.13,1,Christian Flores,Blanco,66.59,226.8,136.08,208.65,571.53,Single-ply,SBD,M,
Boys,67.13,2,Marc Western,Wimberley,64.27,188.24,92.99,199.58,480.81,Single-ply,SBD,M,
Boys,67.13,3,Harrison Gaenzel,Pleasanton,64.95,188.24,102.06,188.24,478.54,Single-ply,SBD,M,
Boys,67.13,4,Jessie John Guel,Pleasanton,66.45,174.63,106.59,170.1,451.32,Single-ply,SBD,M,
Boys,67.13,5,Zakery Martinez,Devine,65.91,165.56,95.25,167.83,428.64,Single-ply,SBD,M,
Boys,67.13,6,Sonny Aldaco,Cotulla,66.18,149.69,97.52,151.95,399.16,Single-ply,SBD,M,
Boys,67.13,7,Gabe Gonzales,Blanco,64.64,145.15,77.11,167.83,390.09,Single-ply,SBD,M,
Boys,67.13,8,Adan Guerra,Cotulla,66.18,136.08,97.52,156.49,390.09,Single-ply,SBD,M,
Boys,67.13,9,Tommy Bannon,San Antonio Cole,62.28,140.61,72.57,161.03,374.21,Single-ply,SBD,M,
Boys,67.13,10,Joshua Legaspe,San Antonio Cole,67,142.88,79.38,151.95,374.21,Single-ply,SBD,M,
Boys,67.13,11,Gianni Rios,Natalia,66.09,145.15,81.65,124.74,351.53,Single-ply,SBD,M,
Boys,67.13,12,Francisco Huerta,Yoakum,65.63,136.08,77.11,133.81,347,Single-ply,SBD,M,
Boys,67.13,13,Reid Simpson,Comal Canyon Lake,60.55,129.27,74.84,133.81,337.93,Single-ply,SBD,M,
Boys,67.13,14,Justin Rozier,Devine,66.27,127.01,68.04,142.88,337.93,Single-ply,SBD,M,
Boys,67.13,15,Hilly Soto,Cotulla,66.68,117.93,83.91,136.08,337.93,Single-ply,SBD,M,
Boys,67.13,16,Josue Ortiz,Cotulla,62.46,127.01,68.04,133.81,328.85,Single-ply,SBD,M,
Boys,67.13,17,Aiden Rios,Marion,63.05,117.93,70.31,136.08,324.32,Single-ply,SBD,M,
Boys,67.13,18,Roberto Hernandez,Natalia,66.32,115.67,58.97,136.08,310.71,Single-ply,SBD,M,
Boys,74.84,1,Adrian Vasquez,Natalia,73.53,229.06,111.13,231.33,571.53,Single-ply,SBD,M,
Boys,74.84,2,Ray Rayos,Marion,74.39,192.78,120.2,247.21,560.19,Single-ply,SBD,M,
Boys,74.84,3,Diego Zapata,Natalia,71.3,213.19,102.06,183.7,498.95,Single-ply,SBD,M,
Boys,74.84,4,Mike Flores,Cotulla,73.3,183.7,117.93,195.04,496.68,Single-ply,SBD,M,
Boys,74.84,5,Hayden Harris,Jourdanton,74.75,183.7,124.74,183.7,492.15,Single-ply,SBD,M,
Boys,74.84,6,Elijah Banda,Natalia,74.07,197.31,106.59,161.03,464.93,Single-ply,SBD,M,
Boys,74.84,7,Max Chessher,Pleasanton,71.71,174.63,102.06,165.56,442.25,Single-ply,SBD,M,
Boys,74.84,8,Matt Soza,Comal Canyon Lake,73.48,161.03,104.33,174.63,439.98,Single-ply,SBD,M,
Boys,74.84,9,Aj Ayala,Pleasanton,72.62,172.37,97.52,165.56,435.45,Single-ply,SBD,M,
Boys,74.84,10,Saul Valadez,Natalia,73.89,170.1,95.25,163.29,428.64,Single-ply,SBD,M,
Boys,74.84,11,Chris Saldana,Natalia,69.9,151.95,86.18,183.7,421.84,Single-ply,SBD,M,
Boys,74.84,12,Derek Wiatrek,Comal Canyon Lake,71.67,136.08,113.4,163.29,412.77,Single-ply,SBD,M,
Boys,74.84,13,Jerome Martinez,Cotulla,70.31,138.35,102.06,156.49,396.89,Single-ply,SBD,M,
Boys,74.84,14,Jacob Guajardo,Devine,72.8,145.15,97.52,151.95,394.63,Single-ply,SBD,M,
Boys,74.84,15,Luke Fanno,Jourdanton,73.62,174.63,72.57,147.42,394.63,Single-ply,SBD,M,
Boys,74.84,16,Danny Guillen,Devine,68.27,156.49,74.84,156.49,387.82,Single-ply,SBD,M,
Boys,74.84,17,Landon McDole,Natalia,73.57,133.81,97.52,151.95,383.29,Single-ply,SBD,M,
Boys,74.84,18,Diego Flores,Marion,68.95,147.42,70.31,161.03,378.75,Single-ply,SBD,M,
Boys,74.84,19,Rains Finch,Blanco,70.35,124.74,74.84,136.08,335.66,Single-ply,SBD,M,
Boys,74.84,20,Seasar Garcia,Cotulla,72.53,115.67,83.91,136.08,335.66,Single-ply,SBD,M,
Boys,74.84,21,Mark Rodriguez,San Antonio Southwest Legacy,71.8,127.01,83.91,115.67,326.59,Single-ply,SBD,M,
Boys,74.84,22,Freddie Santiago,Comal Canyon Lake,72.57,124.74,74.84,127.01,326.59,Single-ply,SBD,M,
Boys,74.84,23,Chevy Standifer,Comal Canyon Lake,69.31,106.59,61.23,129.27,297.1,Single-ply,SBD,M,
Boys,74.84,24,Donovan Navarro,San Antonio Kennedy,68.72,88.45,61.23,115.67,265.35,Single-ply,SBD,M,
Boys,74.84,25,Martin Puente,San Antonio Kennedy,68.31,61.23,47.63,108.86,217.72,Single-ply,SBD,M,
Boys,74.84,DQ,Grant Wagoner,Devine,74.57,158.76,90.72,,,Single-ply,SBD,M,
Boys,74.84,DQ,Pete Arguijo,Pleasanton,74.39,113.4,,,,Single-ply,SBD,M,
Boys,74.84,DQ,Ryan Rivali,Comal Canyon Lake,70.94,,,,,Single-ply,SBD,M,
Boys,74.84,DQ,Johntay Burgess,San Antonio Cole,67.81,,,,,Single-ply,SBD,M,
Boys,74.84,DQ,Damion Legaspe,San Antonio Cole,67.4,151.95,,,,Single-ply,SBD,M,
Boys,74.84,DQ,Eli Ayala,Cotulla,72.71,124.74,,,,Single-ply,SBD,M,
Boys,82.1,1,Buddy Santos,Devine,76.2,231.33,122.47,238.14,591.94,Single-ply,SBD,M,
Boys,82.1,2,Joseph Hernadez,Devine,80.88,204.12,95.25,226.8,526.17,Single-ply,SBD,M,
Boys,82.1,3,Jesse Sanchez,Cotulla,79.2,192.78,124.74,195.04,512.56,Single-ply,SBD,M,
Boys,82.1,4,Jackson Cress,Blanco,76.52,188.24,115.67,190.51,494.42,Single-ply,SBD,M,
Boys,82.1,5,Darren Thomas,Cotulla,80.56,190.51,106.59,195.04,492.15,Single-ply,SBD,M,
Boys,82.1,6,Devin Ornales,Devine,80.83,183.7,136.08,163.29,483.08,Single-ply,SBD,M,
Boys,82.1,7,Fabian Ruiz,Natalia,79.61,197.31,92.99,185.97,476.27,Single-ply,SBD,M,
Boys,82.1,8,Issac Rios,Natalia,81.37,176.9,108.86,183.7,469.47,Single-ply,SBD,M,
Boys,82.1,9,Chris Verdin,Jourdanton,76.11,183.7,88.45,195.04,467.2,Single-ply,SBD,M,
Boys,82.1,10,Amon Jones,San Antonio Cole,79.65,176.9,92.99,190.51,460.4,Single-ply,SBD,M,
Boys,82.1,11,Jonathan Mabs,Marion,77.93,174.63,97.52,185.97,458.13,Single-ply,SBD,M,
Boys,82.1,12,Rory Hughes,Wimberley,80.06,172.37,81.65,170.1,424.11,Single-ply,SBD,M,
Boys,82.1,13,Wyatt Bates,Comal Canyon Lake,78.74,147.42,83.91,149.69,381.02,Single-ply,SBD,M,
Boys,82.1,14,Luke Johnson,Blanco,79.51,131.54,83.91,140.61,356.07,Single-ply,SBD,M,
Boys,82.1,15,Tanner Schultz,Comal Canyon Lake,76.07,120.2,74.84,142.88,337.93,Single-ply,SBD,M,
Boys,82.1,16,Andrew Miller #1,Comal Canyon Lake,76.7,129.27,61.23,136.08,326.59,Single-ply,SBD,M,
Boys,82.1,17,Nathan Shearer,San Antonio Southwest Legacy,76.79,111.13,61.23,124.74,297.1,Single-ply,SBD,M,
Boys,82.1,DQ,John Boyle,Wimberley,80.6,,,,,Single-ply,SBD,M,
Boys,82.1,DQ,Everett Penalver,San Antonio Kennedy,81.01,142.88,,,,Single-ply,SBD,M,
Boys,82.1,DQ,Rafael Estala,Devine,78.15,154.22,,,,Single-ply,SBD,M,
Boys,89.81,1,Gibby Salas,San Antonio Holy Cross,87.18,267.62,138.35,229.06,635.03,Single-ply,SBD,M,
Boys,89.81,2,Carlos Verdin,Jourdanton,87.95,226.8,140.61,210.92,578.33,Single-ply,SBD,M,
Boys,89.81,3,Cameron Coburn,Wimberley,84.96,219.99,133.81,206.38,560.19,Single-ply,SBD,M,
Boys,89.81,4,Eric Ortega,Cotulla,88.59,206.38,129.27,210.92,546.58,Single-ply,SBD,M,
Boys,89.81,5,Jacob Olivares,San Antonio Holy Cross,85.14,217.72,104.33,219.99,542.04,Single-ply,SBD,M,
Boys,89.81,6,Rafael Arroyo,Wimberley,87.63,210.92,115.67,199.58,526.17,Single-ply,SBD,M,
Boys,89.81,7,Kerrick Lai,Wimberley,84.5,197.31,120.2,192.78,510.29,Single-ply,SBD,M,
Boys,89.81,8,Austin Montanez,San Antonio Cole,89.72,204.12,99.79,204.12,508.02,Single-ply,SBD,M,
Boys,89.81,9,Devin Perez,Natalia,84.5,185.97,104.33,179.17,469.47,Single-ply,SBD,M,
Boys,89.81,10,Evan Priest,Devine,86.18,183.7,90.72,190.51,464.93,Single-ply,SBD,M,
Boys,89.81,11,Mauricio Pecina,Yoakum,86.23,172.37,102.06,172.37,446.79,Single-ply,SBD,M,
Boys,89.81,12,Adrien Perales,Cotulla,87.86,172.37,99.79,158.76,430.91,Single-ply,SBD,M,
Boys,89.81,13,Joseph Rodriguez,San Antonio Kennedy,83.19,142.88,86.18,185.97,415.04,Single-ply,SBD,M,
Boys,89.81,14,Kyle Herber,Comal Canyon Lake,89.36,151.95,92.99,149.69,394.63,Single-ply,SBD,M,
Boys,89.81,15,Stone Amador,Jourdanton,84.14,127.01,92.99,156.49,376.48,Single-ply,SBD,M,
Boys,89.81,16,Andrew Rodriguez,San Antonio Southwest Legacy,87.09,129.27,74.84,170.1,374.21,Single-ply,SBD,M,
Boys,89.81,17,James Olague Dehoyos,San Antonio Southwest Legacy,85.77,120.2,74.84,142.88,337.93,Single-ply,SBD,M,
Boys,89.81,18,Bryce Birdwell,Marion,84.28,127.01,70.31,136.08,333.39,Single-ply,SBD,M,
Boys,89.81,DQ,Romelo Portillo,San Antonio Holy Cross,82.96,,,,,Single-ply,SBD,M,
Boys,99.79,1,Issac Paredes,Jourdanton,99.65,251.74,183.7,233.6,669.05,Single-ply,SBD,M,
Boys,99.79,2,Michael Martinez,Natalia,96.71,272.16,142.88,226.8,641.83,Single-ply,SBD,M,
Boys,99.79,3,Jeremiah Gomez,Natalia,92.08,204.12,122.47,226.8,553.38,Single-ply,SBD,M,
Boys,99.79,4,Eli Gonzalez,Cotulla,97.3,210.92,149.69,176.9,537.51,Single-ply,SBD,M,
Boys,99.79,5,Nathaniel Trinidad,San Antonio Holy Cross,98.29,192.78,108.86,217.72,519.36,Single-ply,SBD,M,
Boys,99.79,6,Corbin Flores,Marion,96.8,210.92,117.93,183.7,512.56,Single-ply,SBD,M,
Boys,99.79,7,Fabian Alvarez,San Antonio Southwest Legacy,94.53,183.7,106.59,213.19,503.49,Single-ply,SBD,M,
Boys,99.79,8,Aaron Rivera,Devine,99.74,183.7,131.54,185.97,501.22,Single-ply,SBD,M,
Boys,99.79,9,Miguel Buenrostro,Yoakum,91.67,183.7,92.99,197.31,474,Single-ply,SBD,M,
Boys,99.79,10,Corey Hunter,San Antonio Cole,97.43,179.17,90.72,190.51,460.4,Single-ply,SBD,M,
Boys,99.79,11,Aharon de los Santos,Yoakum,92.8,183.7,92.99,156.49,433.18,Single-ply,SBD,M,
Boys,99.79,12,Rudy Velasquez,Cotulla,96.57,145.15,104.33,156.49,405.97,Single-ply,SBD,M,
Boys,99.79,13,Kolten Gaskamp,Blanco,93.35,149.69,90.72,158.76,399.16,Single-ply,SBD,M,
Boys,99.79,14,Gabe Geving,Comal Canyon Lake,93.8,120.2,83.91,174.63,378.75,Single-ply,SBD,M,
Boys,99.79,15,Cole Tharp,Blanco,94.8,138.35,95.25,142.88,376.48,Single-ply,SBD,M,
Boys,99.79,16,Nathan Rico,San Antonio Southwest Legacy,91.85,108.86,68.04,138.35,315.25,Single-ply,SBD,M,
Boys,99.79,17,Angel Romero #2,San Antonio Kennedy,91.85,108.86,68.04,131.54,308.44,Single-ply,SBD,M,
Boys,99.79,18,Adrian Perez,San Antonio Southwest Legacy,91.81,108.86,65.77,122.47,297.1,Single-ply,SBD,M,
Boys,109.77,1,Uriel Arellano,Natalia,109.04,249.48,197.31,226.8,673.58,Single-ply,SBD,M,
Boys,109.77,2,Andrew Velasquez,Cotulla,106.46,215.46,170.1,195.04,580.6,Single-ply,SBD,M,
Boys,109.77,3,Isaiah Sanchez,Natalia,104.83,231.33,111.13,226.8,569.26,Single-ply,SBD,M,
Boys,109.77,4,Dustin Soto,Natalia,105.51,222.26,131.54,213.19,566.99,Single-ply,SBD,M,
Boys,109.77,5,Gustavo Gomez,Natalia,102.38,247.21,133.81,165.56,546.58,Single-ply,SBD,M,
Boys,109.77,6,Blayde Martinez,Cotulla,104.42,204.12,124.74,204.12,532.97,Single-ply,SBD,M,
Boys,109.77,7,Alex Aguilar #3,Marion,104.46,204.12,106.59,217.72,528.44,Single-ply,SBD,M,
Boys,109.77,8,Braden Hodge,Comal Canyon Lake,100.06,174.63,151.95,158.76,485.34,Single-ply,SBD,M,
Boys,109.77,9,Kaleb Linares,Cotulla,107.91,183.7,136.08,163.29,483.08,Single-ply,SBD,M,
Boys,109.77,10,Hector Herrera,Wimberley,103.01,188.24,88.45,192.78,469.47,Single-ply,SBD,M,
Boys,109.77,11,Tyler Atenciio,Comal Canyon Lake,100.92,190.51,92.99,181.44,464.93,Single-ply,SBD,M,
Boys,109.77,12,Cyrus Vaughn,San Antonio Cole,103.69,179.17,83.91,192.78,455.86,Single-ply,SBD,M,
Boys,109.77,13,Frank Hinojosa,Cotulla,107.32,138.35,113.4,147.42,399.16,Single-ply,SBD,M,
Boys,109.77,14,Isaiah Romero,Devine,104.05,147.42,90.72,149.69,387.82,Single-ply,SBD,M,
Boys,109.77,15,Logan Camarillo,Devine,104.55,140.61,102.06,138.35,381.02,Single-ply,SBD,M,
Boys,109.77,16,Freddy Martinez,Jourdanton,106.5,124.74,86.18,163.29,374.21,Single-ply,SBD,M,
Boys,109.77,17,Matthew Mariscol,Yoakum,103.42,136.08,81.65,142.88,360.61,Single-ply,SBD,M,
Boys,109.77,DQ,Gabriel Hernandez,San Antonio Southwest Legacy,104.55,,,,,Single-ply,SBD,M,
Boys,124.74,1,Paul Billalobos,Natalia,122.06,278.96,151.95,244.94,675.85,Single-ply,SBD,M,
Boys,124.74,2,Diego Hernandez,Natalia,110.63,204.12,111.13,190.51,505.76,Single-ply,SBD,M,
Boys,124.74,3,Aubrey Cummings,Natalia,122.79,204.12,145.15,151.95,501.22,Single-ply,SBD,M,
Boys,124.74,4,Daniel Jaimes,Blanco,116.03,206.38,106.59,183.7,496.68,Single-ply,SBD,M,
Boys,124.74,5,Kalen Claus,Jourdanton,110.09,138.35,138.35,183.7,460.4,Single-ply,SBD,M,
Boys,124.74,6,Joel Hernandez #2,Devine,110.99,163.29,108.86,183.7,455.86,Single-ply,SBD,M,
Boys,124.74,7,Jordan Guerra,San Antonio Holy Cross,121.2,151.95,77.11,172.37,401.43,Single-ply,SBD,M,
Boys,124.74,8,Rudy Rodriguez,Devine,113.17,133.81,92.99,161.03,387.82,Single-ply,SBD,M,
Boys,124.74,9,Josh Garry,San Antonio Kennedy,116.3,90.72,81.65,145.15,317.51,Single-ply,SBD,M,
Boys,124.74,10,Angel Guevarra,Cotulla,122.61,106.59,77.11,131.54,315.25,Single-ply,SBD,M,
Boys,124.74,11,Marcos Perez,San Antonio Southwest Legacy,110.22,99.79,65.77,115.67,281.23,Single-ply,SBD,M,
Boys,124.74,12,Matthew Romero,San Antonio Kennedy,121.2,90.72,45.36,106.59,242.67,Single-ply,SBD,M,
Boys,124.74+,1,Diego Anguiano,Pleasanton,136.12,229.06,145.15,208.65,582.87,Single-ply,SBD,M,
Boys,124.74+,2,Bode Walters,Marion,138.25,210.92,145.15,192.78,548.85,Single-ply,SBD,M,
Boys,124.74+,3,Kirk Revis,San Antonio Holy Cross,125.19,217.72,124.74,190.51,532.97,Single-ply,SBD,M,
Boys,124.74+,4,Darrin Lafferty,Devine,134.58,188.24,124.74,183.7,496.68,Single-ply,SBD,M,
Boys,124.74+,5,Marco DeLeon,Jourdanton,133.99,183.7,111.13,183.7,478.54,Single-ply,SBD,M,
Boys,124.74+,6,James Soldwisch,Blanco,128.46,127.01,138.35,145.15,410.5,Single-ply,SBD,M,
Boys,124.74+,7,Mason Groff,Blanco,129.05,151.95,95.25,163.29,410.5,Single-ply,SBD,M,
Boys,124.74+,8,Benjamin Pulliam,San Antonio Southwest Legacy,140.61,81.65,79.38,154.22,315.25,Single-ply,SBD,M,
Boys,124.74+,DQ,Marcos Coronado,San Antonio Holy Cross,174.18,195.04,102.06,,,Single-ply,SBD,M,
Boys,124.74+,DQ,Tyler Martinez #3,Jourdanton,125.37,83.91,,,,Single-ply,SBD,M,
