Division,WeightClassKg,Place,Name,Team,BodyweightKg,Best3SquatKg,Best3BenchKg,Best3DeadliftKg,TotalKg,Equipment,Event,Sex,BirthDate
Boys,51.71,1,Austin Reynolds,Royse City,50.39,145.15,77.11,138.35,360.61,Single-ply,SBD,M,
Boys,51.71,2,Dillon Bobbit,Greenville,47.76,111.13,47.63,111.13,269.89,Single-ply,SBD,M,
Boys,51.71,3,Abraham Hernandez,West Mesquite,50.94,99.79,45.36,102.06,247.21,Single-ply,SBD,M,
Boys,51.71,4,Bryan Diaz,Longview Pine Tree,48.76,95.25,49.9,99.79,244.94,Single-ply,SBD,M,
Boys,51.71,5,Austin McCain,Sulphur Springs,45.86,86.18,54.43,88.45,229.06,Single-ply,SBD,M,
Boys,51.71,6,Juan Estrada,West Mesquite,49.31,83.91,38.56,97.52,219.99,Single-ply,SBD,M,
Boys,51.71,7,Eric Melendez,Carrollton Turner,50.89,63.5,34.02,81.65,179.17,Single-ply,SBD,M,
Boys,55.79,1,Zack Doyle,Royse City,55.02,185.97,97.52,181.44,464.93,Single-ply,SBD,M,
Boys,55.79,2,Gianluca Figueroa,Carrollton Smith,54.16,142.88,102.06,197.31,442.25,Single-ply,SBD,M,
Boys,55.79,3,Nico Castro,Royse City,54.66,165.56,86.18,161.03,412.77,Single-ply,SBD,M,
Boys,55.79,4,Rhett Hutchins,Whitehouse,54.34,149.69,81.65,140.61,371.95,Single-ply,SBD,M,
Boys,55.79,5,Lane Thieme,Forney,55.79,131.54,74.84,156.49,362.87,Single-ply,SBD,M,
Boys,55.79,6,Adrian Guerra,West Mesquite,53.84,131.54,63.5,138.35,333.39,Single-ply,SBD,M,
Boys,55.79,7,Trace Woodruff,Crandall,53.98,108.86,77.11,145.15,331.12,Single-ply,SBD,M,
Boys,55.79,8,Noah Casarez,West Mesquite,54.7,113.4,61.23,138.35,312.98,Single-ply,SBD,M,
Boys,55.79,DQ,Aaron Nguyen,Whitehouse,55.38,122.47,,,,Single-ply,SBD,M,
Boys,59.87,1,Bryan Rodriguez,Greenville,58.01,208.65,120.2,181.44,510.29,Single-ply,SBD,M,
Boys,59.87,2,Juan Hernández #15,Sulphur Springs,58.92,204.12,88.45,206.38,498.95,Single-ply,SBD,M,
Boys,59.87,3,Kyle Amos,Royse City,59.42,163.29,99.79,163.29,426.38,Single-ply,SBD,M,
Boys,59.87,4,Lukas Gill,Tyler Legacy,59.6,172.37,99.79,147.42,419.57,Single-ply,SBD,M,
Boys,59.87,5,Easton McMillan,Forney,57.7,163.29,92.99,156.49,412.77,Single-ply,SBD,M,
Boys,59.87,6,Hunter Branson,Hallsville,57.52,158.76,90.72,147.42,396.89,Single-ply,SBD,M,
Boys,59.87,7,Andrew Mast,Carrollton Creekview,58.88,138.35,88.45,158.76,385.55,Single-ply,SBD,M,
Boys,59.87,8,Joseph Cordova,Longview Pine Tree,57.11,138.35,68.04,140.61,347,Single-ply,SBD,M,
Boys,59.87,9,Alejandro Guzman,Garland Rowlett,58.06,127.01,65.77,149.69,342.46,Single-ply,SBD,M,
Boys,59.87,10,De'Jaylon Beal,Tyler,57.74,117.93,77.11,136.08,331.12,Single-ply,SBD,M,
Boys,59.87,11,Dylan McGregor,Whitehouse,57.52,115.67,83.91,127.01,326.59,Single-ply,SBD,M,
Boys,59.87,12,Aidan Gray,Carrollton Creekview,59.87,113.4,77.11,124.74,315.25,Single-ply,SBD,M,
Boys,59.87,13,Cullen Williams,Tyler Legacy,57.65,115.67,61.23,127.01,303.91,Single-ply,SBD,M,
Boys,67.13,1,Noel Whitehead,Richardson Lake Highlands,66.22,188.24,99.79,210.92,498.95,Single-ply,SBD,M,
Boys,67.13,2,Alejandro Vasquez,Greenville,66.36,195.04,111.13,190.51,496.68,Single-ply,SBD,M,
Boys,67.13,3,Kasey Nguyen,Carrollton Creekview,66.27,188.24,111.13,190.51,489.88,Single-ply,SBD,M,
Boys,67.13,4,Braiden Mathews,Whitehouse,66.09,192.78,113.4,174.63,480.81,Single-ply,SBD,M,
Boys,67.13,5,Donovan Smith,Carrollton Turner,65.05,174.63,104.33,192.78,471.74,Single-ply,SBD,M,
Boys,67.13,6,Walker Coe,Tyler Legacy,63.68,185.97,92.99,188.24,467.2,Single-ply,SBD,M,
Boys,67.13,7,Kane Jones,Tyler Legacy,63.91,174.63,102.06,174.63,451.32,Single-ply,SBD,M,
Boys,67.13,8,Colton Monroe,Bishop Lynch,64.41,174.63,86.18,170.1,430.91,Single-ply,SBD,M,
Boys,67.13,9,Brealon Fagan,Hallsville,65.54,158.76,81.65,188.24,428.64,Single-ply,SBD,M,
Boys,67.13,10,Cooper Roberts,Dallas Highland Park,65.05,140.61,86.18,185.97,412.77,Single-ply,SBD,M,
Boys,67.13,11,Aidan Walker,Royse City,65.91,163.29,90.72,158.76,412.77,Single-ply,SBD,M,
Boys,67.13,DQ,De'Juan Limbrick,West Mesquite,66.13,165.56,,,,Single-ply,SBD,M,
Boys,74.84,1,Sam Mitchum,Royse City,73.44,213.19,127.01,226.8,566.99,Single-ply,SBD,M,
Boys,74.84,2,Greg Kalulu,Longview Pine Tree,73.71,192.78,120.2,240.4,553.38,Single-ply,SBD,M,
Boys,74.84,3,David Thompson,Carrollton Creekview,67.49,204.12,120.2,222.26,546.58,Single-ply,SBD,M,
Boys,74.84,4,Jeremiah Sheffie,Tyler Legacy,70.08,208.65,115.67,185.97,510.29,Single-ply,SBD,M,
Boys,74.84,5,Zane Phillips,Mount Pleasant,70.62,190.51,99.79,195.04,485.34,Single-ply,SBD,M,
Boys,74.84,6,Brenden Fink,Sulphur Springs,74.25,188.24,113.4,183.7,485.34,Single-ply,SBD,M,
Boys,74.84,7,Alejandro Diaz,Carrollton Smith,74.07,183.7,97.52,190.51,471.74,Single-ply,SBD,M,
Boys,74.84,8,Kysen Jackson,Longview,70.76,158.76,106.59,199.58,464.93,Single-ply,SBD,M,
Boys,74.84,9,Hayden Bohme,Royse City,70.94,163.29,102.06,190.51,455.86,Single-ply,SBD,M,
Boys,74.84,10,Josiah Robison,Carrollton Creekview,73.94,165.56,102.06,161.03,428.64,Single-ply,SBD,M,
Boys,74.84,11,Elijah Gray,Whitehouse,73.12,161.03,92.99,170.1,424.11,Single-ply,SBD,M,
Boys,82.1,1,Ryan Carrillo #2,Sulphur Springs,82.05,231.33,147.42,210.92,589.67,Single-ply,SBD,M,
Boys,82.1,2,Matthew Mitchell,Sulphur Springs,80.47,222.26,136.08,213.19,571.53,Single-ply,SBD,M,
Boys,82.1,3,Jacob Huddleston,Jacksonville,80.92,215.46,115.67,226.8,557.92,Single-ply,SBD,M,
Boys,82.1,4,Brandon Moore,Greenville,79.79,208.65,124.74,217.72,551.11,Single-ply,SBD,M,
Boys,82.1,5,Cameron Kongamnach,Garland Rowlett,79.33,204.12,140.61,204.12,548.85,Single-ply,SBD,M,
Boys,82.1,6,Kobe Floyd,Cedar Hill,79.65,215.46,124.74,208.65,548.85,Single-ply,SBD,M,
Boys,82.1,7,Ryan Jung,Carrollton Creekview,80.29,213.19,117.93,217.72,548.85,Single-ply,SBD,M,
Boys,82.1,8,Dunaireon Cantley,Tyler,80.47,204.12,115.67,215.46,535.24,Single-ply,SBD,M,
Boys,82.1,9,Jordon Slayton,Whitehouse,78.61,188.24,136.08,206.38,530.7,Single-ply,SBD,M,
Boys,82.1,10,Journie Thomas,Lufkin,78.38,183.7,124.74,197.31,505.76,Single-ply,SBD,M,
Boys,82.1,11,Elias Elizondo,Mount Pleasant,79.47,195.04,97.52,208.65,501.22,Single-ply,SBD,M,
Boys,89.81,1,Giancarlos Belteton,Greenville,88.59,278.96,185.97,235.87,700.8,Single-ply,SBD,M,
Boys,89.81,2,Hayden Branson,Hallsville,85.23,235.87,149.69,233.6,619.15,Single-ply,SBD,M,
Boys,89.81,3,Caleb Robb,Royse City,87.54,226.8,154.22,238.14,619.15,Single-ply,SBD,M,
Boys,89.81,4,Aidan Murrey,Royse City,87,235.87,163.29,217.72,616.89,Single-ply,SBD,M,
Boys,89.81,5,Tyler Thomas,Texarkana Texas,86.23,206.38,138.35,204.12,548.85,Single-ply,SBD,M,
Boys,89.81,6,Quincy Davis,Cedar Hill,87.32,208.65,127.01,210.92,546.58,Single-ply,SBD,M,
Boys,89.81,7,Joshua Toyphommarath,Carrollton Creekview,88.68,204.12,138.35,195.04,537.51,Single-ply,SBD,M,
Boys,89.81,8,Reggie Williams,Crandall,85.37,199.58,138.35,197.31,535.24,Single-ply,SBD,M,
Boys,89.81,9,DeJay Huggins,Hallsville,89.63,224.53,115.67,195.04,535.24,Single-ply,SBD,M,
Boys,89.81,10,Isaak Sandoval,West Mesquite,82.64,188.24,97.52,213.19,498.95,Single-ply,SBD,M,
Boys,89.81,DQ,Braiden Grogan,Tyler Legacy,86.95,192.78,,,,Single-ply,SBD,M,
Boys,89.81,DQ,Dozie Enemo,Garland Rowlett,82.37,204.12,,,,Single-ply,SBD,M,
Boys,99.79,1,Griffen Merillat,Royse City,97.52,276.69,204.12,231.33,712.14,Single-ply,SBD,M,
Boys,99.79,2,Caleb Bolay,Whitehouse,97.98,260.82,213.19,204.12,678.12,Single-ply,SBD,M,
Boys,99.79,3,Mark Daniels #3,Longview Pine Tree,94.48,240.4,161.03,204.12,605.55,Single-ply,SBD,M,
Boys,99.79,4,Tayton Auldridge,Forney,95.57,233.6,136.08,226.8,596.47,Single-ply,SBD,M,
Boys,99.79,5,Emiliano Portillo,Greenville,96.03,238.14,136.08,215.46,589.67,Single-ply,SBD,M,
Boys,99.79,6,Logan Monroe,Bishop Lynch,96.43,217.72,136.08,222.26,576.06,Single-ply,SBD,M,
Boys,99.79,7,Chris Clark,Royse City,98.88,219.99,149.69,181.44,551.11,Single-ply,SBD,M,
Boys,99.79,8,Christian Crain,Lufkin,96.93,222.26,122.47,199.58,544.31,Single-ply,SBD,M,
Boys,99.79,9,Astin Ledbetter,Mount Pleasant,97.57,181.44,122.47,229.06,532.97,Single-ply,SBD,M,
Boys,99.79,10,Drew Dubuclet,Richardson Lake Highlands,94.48,188.24,106.59,231.33,526.17,Single-ply,SBD,M,
Boys,99.79,11,Caleb Jones,Whitehouse,92.8,204.12,127.01,183.7,514.83,Single-ply,SBD,M,
Boys,109.77,1,David Omosigho,Crandall,104.19,247.21,176.9,272.16,696.26,Single-ply,SBD,M,
Boys,109.77,2,Liam Huynh,Whitehouse,101.33,272.16,170.1,231.33,673.58,Single-ply,SBD,M,
Boys,109.77,3,Nico Gaston,Royse City,108.23,240.4,185.97,215.46,641.83,Single-ply,SBD,M,
Boys,109.77,4,Tariq Robinson,Tyler Legacy,108.86,263.08,154.22,206.38,623.69,Single-ply,SBD,M,
Boys,109.77,5,Chad Maynard,Sulphur Springs,102.19,254.01,138.35,204.12,596.47,Single-ply,SBD,M,
Boys,109.77,6,Emmanuel Fernandez,Bishop Lynch,100.33,240.4,142.88,210.92,594.21,Single-ply,SBD,M,
Boys,109.77,7,Rodolfo Ramirez,Richardson Pearce,103.06,231.33,120.2,238.14,589.67,Single-ply,SBD,M,
Boys,109.77,8,Anthony Menjivar,Garland Rowlett,107.18,231.33,127.01,226.8,585.13,Single-ply,SBD,M,
Boys,109.77,9,Tarren Black,Cedar Hill,107.5,224.53,129.27,210.92,564.72,Single-ply,SBD,M,
Boys,109.77,10,Jermaine Simpson,Lufkin,104.69,213.19,115.67,233.6,562.45,Single-ply,SBD,M,
Boys,109.77,11,Standrick Cole,Garland Rowlett,107.82,219.99,122.47,199.58,542.04,Single-ply,SBD,M,
Boys,109.77,12,Stephen Thrasher,Forney,103.28,179.17,138.35,183.7,501.22,Single-ply,SBD,M,
Boys,124.74,1,Isiah Alexander,Marshall,117.66,254.01,163.29,254.01,671.32,Single-ply,SBD,M,
Boys,124.74,2,Rod Brown,North Forney,123.24,258.55,161.03,251.74,671.32,Single-ply,SBD,M,
Boys,124.74,3,Lance Deal,Whitehouse,115.26,235.87,154.22,254.01,644.1,Single-ply,SBD,M,
Boys,124.74,4,Braden Tittle,Royse City,121.25,238.14,158.76,233.6,630.49,Single-ply,SBD,M,
Boys,124.74,5,Nicholas Cruz,Tyler,116.66,244.94,142.88,226.8,614.62,Single-ply,SBD,M,
Boys,124.74,6,Nate Lasby,Bishop Lynch,122.06,231.33,149.69,208.65,589.67,Single-ply,SBD,M,
Boys,124.74,7,Jeremy Jacobs,Hallsville,118.3,235.87,142.88,204.12,582.87,Single-ply,SBD,M,
Boys,124.74,8,Sean Dial,Sulphur Springs,124.01,226.8,117.93,238.14,582.87,Single-ply,SBD,M,
Boys,124.74,9,Tony Baker,Carrollton Creekview,117.8,217.72,149.69,199.58,566.99,Single-ply,SBD,M,
Boys,124.74,10,Donovan Hawthorne,West Mesquite,120.29,226.8,129.27,204.12,560.19,Single-ply,SBD,M,
Boys,124.74,DQ,Isiah Knox,Cedar Hill,120.97,251.74,,,,Single-ply,SBD,M,
Boys,139.71,1,Daniel Bueno,Greenville,129,306.17,161.03,278.96,746.16,Single-ply,SBD,M,
Boys,139.71,2,Alex Rodriguez #16,Greenville,135.26,299.37,185.97,256.28,741.62,Single-ply,SBD,M,
Boys,139.71,3,Reese Mercer,Forney,138.12,265.35,149.69,219.99,635.03,Single-ply,SBD,M,
Boys,139.71,4,Luis Venegas,Greenville,133.17,249.48,136.08,238.14,623.69,Single-ply,SBD,M,
Boys,139.71,5,Taron Satchell,Marshall,130.91,226.8,158.76,226.8,612.35,Single-ply,SBD,M,
Boys,139.71,6,Amore Carr-Lane,Cedar Hill,135.08,263.08,129.27,195.04,587.4,Single-ply,SBD,M,
Boys,139.71,7,Gannon Gaubert,Dallas Highland Park,131.09,219.99,138.35,219.99,578.33,Single-ply,SBD,M,
Boys,139.71,8,Jamarion Johnson,Lufkin,135.17,231.33,117.93,229.06,578.33,Single-ply,SBD,M,
Boys,139.71,9,Jakobe Yarbrough,Sulphur Springs,133.31,235.87,111.13,226.8,573.79,Single-ply,SBD,M,
Boys,139.71,10,Caleb Power,Whitehouse,125.78,222.26,131.54,213.19,566.99,Single-ply,SBD,M,
Boys,139.71,11,Donavan Jordan,Tyler Legacy,126.51,206.38,133.81,217.72,557.92,Single-ply,SBD,M,
Boys,139.71+,1,Kah'Lil Montague,Tyler Legacy,162.02,281.23,249.48,258.55,789.25,Single-ply,SBD,M,
Boys,139.71+,2,Cade Crawford,Forney,161.89,342.46,190.51,235.87,768.84,Single-ply,SBD,M,
Boys,139.71+,3,Ismael Alvarez,South Garland,142.2,260.82,147.42,249.48,657.71,Single-ply,SBD,M,
Boys,139.71+,4,Sam Odelami,Richardson Lake Highlands,149.01,215.46,127.01,249.48,591.94,Single-ply,SBD,M,
Boys,139.71+,5,Charlie Wilson #1,Dallas Highland Park,142.07,240.4,120.2,195.04,555.65,Single-ply,SBD,M,
Boys,139.71+,6,Tyler Welborn,Mount Pleasant,151.05,226.8,113.4,210.92,551.11,Single-ply,SBD,M,
Boys,139.71+,7,Nicholas Batton,Texarkana Texas,153.27,192.78,149.69,208.65,551.11,Single-ply,SBD,M,
Boys,139.71+,8,William Bressi,North Forney,153.36,204.12,133.81,199.58,537.51,Single-ply,SBD,M,
Boys,139.71+,9,Serafin Ortega,South Garland,145.42,199.58,97.52,176.9,474,Single-ply,SBD,M,
Boys,139.71+,10,Alexis Martinez #13,Jacksonville,148.96,208.65,102.06,163.29,474,Single-ply,SBD,M,
