Name,Event,WeightClassKg,BodyweightKg,Sex,Division,Age,Best3SquatKg,Best3BenchKg,Best3DeadliftKg,TotalKg,Equipment,Place
Alivea Bickley,SBD,75,,F,Pro Teen,14,54.43,38.56,92.99,185.97,Multi-ply,1
Lauren Bickley,SBD,67.5,63.05,F,Pro Teen,16,74.84,36.29,83.91,195.04,Multi-ply,1
Amanda Cohn,SBD,82.5,79.83,F,Pro Teen,17,104.33,54.43,140.61,299.37,Multi-ply,1
Mike Jroski,SBD,67.5,,M,Pro Teen,14,70.31,63.5,117.93,251.74,Multi-ply,3
Nathan Robinson,SBD,56,,M,Pro Teen,15,83.91,54.43,99.79,238.14,Multi-ply,1
Louis Boyer,SBD,60,,M,Pro Teen,15,68.04,63.5,127.01,258.55,Multi-ply,1
Massimo Caloriero,SBD,100,,M,Pro Teen,15,154.22,90.72,181.44,426.38,Multi-ply,1
Joey Painter,SBD,67.5,,M,Pro Teen,16,133.81,72.57,163.29,369.68,Multi-ply,1
Aaron Bean,SBD,60,,M,Pro Teen,17,104.33,,136.08,,Multi-ply,DQ
Josh Dunkel,SBD,75,,M,Pro Teen,17,131.54,79.38,170.1,381.02,Multi-ply,1
Joshua Robinson,SBD,82.5,,M,Pro Teen,17,124.74,83.91,190.51,399.16,Multi-ply,1
Wes Kemmerer,SBD,90,85.28,M,Pro Teen,17,117.93,86.18,149.69,353.8,Multi-ply,2
Jason Devlin,SBD,67.5,61.23,M,Pro Teen,18,136.08,72.57,161.03,369.8,Multi-ply,2
Max Kooker,SBD,90,85.73,M,Pro Teen,18,136.08,104.33,190.51,430.91,Multi-ply,1
Ed Daubert,SBD,125,,M,Pro Police,,322.05,195.04,267.62,784.71,Multi-ply,1
Barbara Smith,B,82.5,79.83,F,Pro Teen 18-19,18,,52.16,,52.16,Multi-ply,1
Renee Brandstetter,B,67.5,,F,Pro Open,,,61.23,,61.23,Multi-ply,1
Michelle Borzok,B,75,,F,Pro Open,,,138.35,,138.35,Multi-ply,1
Ross Keim,B,110,,M,Pro Teen,17,,117.93,,117.93,Multi-ply,1
Bill Katinowsky,B,100,,M,Pro Teen,19,,138.35,,138.35,Multi-ply,1
Eric Mattei,B,100,,M,Pro Juniors 20-23,,,136.08,,136.08,Multi-ply,3
Len Lackey,B,100,,M,Pro Police,,,158.76,,158.76,Multi-ply,2
Troy Williamson,B,100,,M,Pro Police,,,176.9,,176.9,Multi-ply,1
Evan Perets,B,100,,M,Pro Police,,,77.11,,77.11,Multi-ply,4
Len Lackey,B,100,,M,Pro Submasters 33-39,,,158.76,,158.76,Multi-ply,2
Glen Butler,B,100,,M,Pro Submasters 33-39,,,210.92,,210.92,Multi-ply,1
Robert Jakus,B,100,,M,Pro Masters 40-44,,,154.22,,154.22,Multi-ply,2
Randy Robinson,B,100,,M,Pro Masters 40-44,,,249.48,,249.48,Multi-ply,1
Stan Roesch,B,100,,M,Pro Masters 40-44,,,,,,Multi-ply,DQ
Kraig Biehl,B,100,,M,Pro Masters 45-49,,,154.22,,154.22,Multi-ply,1
Bentz Tozer Jr,B,100,,M,Pro Masters 45-49,,,,,,Multi-ply,DQ
Jim Walk,B,100,,M,Pro Masters 50-54,,,138.35,,138.35,Multi-ply,3
Greg Talbott,B,100,,M,Pro Masters 50-54,,,158.76,,158.76,Multi-ply,2
Bill Katinowsky,B,100,,M,Pro Masters 50-54,,,163.29,,163.29,Multi-ply,1
Les Schoelkoph,B,100,,M,Pro Masters 55-59,,,154.22,,154.22,Multi-ply,1
Gene Moisey,B,67.5,,M,Pro Open,,,104.33,,104.33,Multi-ply,1
Kevin Kalbach,B,75,,M,Pro Open,,,147.42,,147.42,Multi-ply,1
Ed McCorriston,B,90,,M,Pro Open,,,217.72,,217.72,Multi-ply,1
Jon Ross,B,100,,M,Pro Open,,,229.06,,229.06,Multi-ply,1
Shawn Bray,B,100,,M,Pro Open,,,192.78,,192.78,Multi-ply,2
Nelson Snyder,B,100,,M,Pro Open,,,165.56,,165.56,Multi-ply,3
Bobby Fields,B,110,,M,Pro Open,,,319.78,,319.78,Multi-ply,1
Glen Butler,B,110,,M,Pro Open,,,210.92,,210.92,Multi-ply,2
Kevin Wallace,B,110,,M,Pro Open,,,188.24,,188.24,Multi-ply,3
Jason Ulikowski,B,125,,M,Pro Open,,,226.8,,226.8,Multi-ply,1
John Doherty,B,125,,M,Pro Masters 45-49,,,317.51,,317.51,Multi-ply,1
Cain Quintero,D,110,,M,Pro Teen,16,,,170.1,170.1,Multi-ply,1
Matt Spatz,D,82.5,,M,Pro Teen,18,,,185.97,185.97,Multi-ply,1
Ryan Ferguson,D,90,,M,Pro Teen,18,,,192.78,192.78,Multi-ply,1
Julia Kudlesky,SBD,82.5,,F,Pro Open,,86.18,63.5,117.93,267.62,Multi-ply,1
Sheri Gartland,SBD,82.5,,F,Pro Open,,120.2,56.7,138.35,315.25,Multi-ply,1
James Painter,SBD,82.5,,M,Pro Juniors 20-23,,158.76,104.33,204.12,467.2,Multi-ply,1
Dave Allen #2,SBD,82.5,,M,Pro Juniors 20-23,,136.08,86.18,158.76,381.02,Multi-ply,2
Howard Owens,SBD,110,,M,Pro Juniors 20-23,,274.42,136.08,244.94,655.44,Multi-ply,1
Russ Stoudt,SBD,110,,M,Pro Submasters 33-39,,226.8,156.49,197.31,580.6,Multi-ply,1
Steve Bennett #2,SBD,110,,M,Pro Submasters 33-39,,229.06,208.65,215.46,653.17,Multi-ply,1
Rich Rineer,SBD,140,,M,Pro Masters 40-44,,272.16,204.12,283.5,759.77,Multi-ply,1
John Monk,SBD,67.5,,M,Pro Masters 40-44,,199.58,124.74,206.38,530.7,Multi-ply,1
Al Moatz,SBD,100,,M,Pro Masters 50-54,,176.9,142.88,206.38,526.17,Multi-ply,1
Paul Kane,SBD,90,,M,Pro Masters 55-59,,249.48,158.76,204.12,612.35,Multi-ply,1
Ray Dennison,SBD,90,,M,Pro Masters 55-59,,226.8,117.93,244.94,589.67,Multi-ply,2
John Poole,SBD,75,,M,Pro Masters 60-64,,122.47,,,,Multi-ply,DQ
John D'Ambrosio,SBD,67.5,,M,Pro Open,,83.91,120.2,113.4,317.51,Multi-ply,1
Nathan Bailey,SBD,82.5,,M,Pro Open,,231.33,124.74,217.72,573.79,Multi-ply,1
Dave Kieffer,SBD,125,,M,Pro Open,,190.51,158.76,226.8,576.06,Multi-ply,1
Bill Romanelli,SBD,67.5,,M,Pro Open,,199.58,145.15,199.58,544.31,Multi-ply,1
Chris Morris #3,SBD,100,,M,Pro Open,,306.17,217.72,290.3,814.2,Multi-ply,1
Paul Tongiani,SBD,100,,M,Pro Open,,219.99,179.17,235.87,635.03,Multi-ply,2
Pete Kristovensky,SBD,100,,M,Pro Open,,204.12,151.95,231.33,587.4,Multi-ply,3
Howard Owens,SBD,110,,M,Pro Open,,274.42,136.08,244.94,655.44,Multi-ply,1
Steve Bennett #2,SBD,110,,M,Pro Open,,229.06,208.65,215.46,653.17,Multi-ply,2
Brian Ramberger,SBD,110,,M,Pro Masters 40-44,,278.96,201.85,272.16,752.96,Multi-ply,1
Mike Miller,SBD,140+,,M,Pro Open,,553.38,317.51,319.78,1190.68,Multi-ply,1
Bonnie Graube,B,82.5,,F,Pro Masters 50-54,,,165.56,,165.56,Multi-ply,1
Bob O'Brien,B,82.5,,M,Pro Masters 55-59,,,201.85,,201.85,Multi-ply,1
Bob Bellerby,B,110,,M,Pro Masters 60-64,,,204.12,,204.12,Multi-ply,1
John Roberts #3,B,100,,M,Pro Open,,,179.17,,179.17,Multi-ply,1
Andy Shaffer,B,140+,,M,Pro Open,,,,,,Multi-ply,DQ
Nick Catrambone,BD,140+,,M,Pro Open,,,124.74,199.58,324.32,Multi-ply,1
Matt Spatz,B,82.5,,M,Pro Open,,,185.97,,185.97,Multi-ply,1
Kathy Goliszek,BD,82.5,,F,Pro Open,,,167.83,183.7,351.53,Multi-ply,1
