Division,WeightClassKg,Place,Name,Team,BodyweightKg,Best3SquatKg,Best3BenchKg,Best3DeadliftKg,TotalKg,Equipment,Event,Sex
Boys,51.71,1,Eddie Macias,Laredo Nixon,51.71,158.76,95.25,138.35,392.36,Single-ply,SBD,M
Boys,51.71,2,Brian Lazo,Crystal City,51.71,133.81,74.84,136.08,344.73,Single-ply,SBD,M
Boys,51.71,3,Jacob Forester,Center Point,48.08,86.18,47.63,102.06,235.87,Single-ply,SBD,M
Boys,55.79,1,Silverio Mendoza,Crystal City,55.66,156.49,81.65,165.56,403.7,Single-ply,SBD,M
Boys,55.79,2,Jovan Colchado,Dilley,53.52,133.81,81.65,154.22,369.68,Single-ply,SBD,M
Boys,55.79,3,Orlando Mata,Crystal City,53.57,115.67,58.97,142.88,317.51,Single-ply,SBD,M
Boys,55.79,4,Virgil Luna,Crystal City,55.2,115.67,61.23,133.81,310.71,Single-ply,SBD,M
Boys,55.79,5,Omar Estrada,Laredo Nixon,53.43,77.11,43.09,111.13,231.33,Single-ply,SBD,M
Boys,59.87,1,Eli Luna,Somerset,59.51,195.04,102.06,179.17,476.27,Single-ply,SBD,M
Boys,59.87,2,Fabian Bazan,Castroville Medina Valley,59.69,172.37,97.52,188.24,458.13,Single-ply,SBD,M
Boys,59.87,3,Vynce Ochoa,Dilley,57.06,165.56,99.79,156.49,421.84,Single-ply,SBD,M
Boys,59.87,4,Richard Jimenez,Laredo Nixon,59.15,136.08,72.57,149.69,358.34,Single-ply,SBD,M
Boys,67.13,1,Orlando Gutierrez,Crystal City,66.36,254.01,95.25,208.65,557.92,Single-ply,SBD,M
Boys,67.13,2,Antonio Garcia,Somerset,64.05,185.97,108.86,201.85,496.68,Single-ply,SBD,M
Boys,67.13,3,Julian Rico,Somerset,63.87,204.12,111.13,170.1,485.34,Single-ply,SBD,M
Boys,67.13,4,Kevin Valdez,Castroville Medina Valley,67.09,170.1,113.4,190.51,474,Single-ply,SBD,M
Boys,67.13,5,Josh Valenzuela,Castroville Medina Valley,64.5,176.9,104.33,172.37,453.59,Single-ply,SBD,M
Boys,67.13,6,Juan Guzman,Crystal City,66.95,183.7,102.06,167.83,453.59,Single-ply,SBD,M
Boys,67.13,7,Richard Munoz,Carrizo Springs,65.86,147.42,88.45,154.22,390.09,Single-ply,SBD,M
Boys,67.13,8,Alex De La Rosa,Dilley,65.23,131.54,88.45,145.15,365.14,Single-ply,SBD,M
Boys,67.13,9,Luke Bradshaw,Dilley,67.04,136.08,58.97,158.76,353.8,Single-ply,SBD,M
Boys,67.13,10,Fabian Apaez,Somerset,60.06,136.08,74.84,113.4,324.32,Single-ply,SBD,M
Boys,67.13,DQ,Adrian de la Rosa,Dilley,66.77,122.47,83.91,,,Single-ply,SBD,M
Boys,74.84,1,Cesar Gonzalez,Somerset,72.48,240.4,122.47,231.33,594.21,Single-ply,SBD,M
Boys,74.84,2,Enrique Garza,Dilley,73.03,204.12,124.74,195.04,523.9,Single-ply,SBD,M
Boys,74.84,3,Chance Cabiness,Center Point,72.3,192.78,97.52,188.24,478.54,Single-ply,SBD,M
Boys,74.84,4,Cesar Franco,Crystal City,74.43,183.7,95.25,185.97,464.93,Single-ply,SBD,M
Boys,74.84,5,Ezra Ramirez,Dilley,74.03,188.24,90.72,176.9,455.86,Single-ply,SBD,M
Boys,74.84,6,Rene Alvarado,Center Point,70.76,167.83,102.06,174.63,444.52,Single-ply,SBD,M
Boys,74.84,7,Ricardo Lopez,La Pryor,69.85,147.42,79.38,163.29,390.09,Single-ply,SBD,M
Boys,74.84,8,Bernie Cruz,Laredo Nixon,67.31,127.01,79.38,170.1,376.48,Single-ply,SBD,M
Boys,74.84,9,Joey Trujillo,Carrizo Springs,71.3,113.4,77.11,149.69,340.19,Single-ply,SBD,M
Boys,74.84,10,Miguel Madrigal,Laredo Nixon,68.86,106.59,54.43,161.03,322.05,Single-ply,SBD,M
Boys,82.1,1,Ismael Franco,Crystal City,76.2,244.94,161.03,254.01,659.98,Single-ply,SBD,M
Boys,82.1,2,Steban Mireles,Castroville Medina Valley,81.1,249.48,138.35,231.33,619.15,Single-ply,SBD,M
Boys,82.1,3,Eric Gonzalez,Carrizo Springs,81.19,233.6,136.08,229.06,598.74,Single-ply,SBD,M
Boys,82.1,4,Nick Rodriguez #1,Dilley,77.47,224.53,124.74,206.38,555.65,Single-ply,SBD,M
Boys,82.1,5,Marcos Cruz,Carrizo Springs,82.1,192.78,79.38,183.7,455.86,Single-ply,SBD,M
Boys,82.1,6,Edwin Gonzalez,Laredo Nixon,76.75,183.7,97.52,167.83,449.06,Single-ply,SBD,M
Boys,82.1,7,Andrew Sosa,Laredo Nixon,78.93,145.15,97.52,181.44,424.11,Single-ply,SBD,M
Boys,82.1,DQ,Ray DeLeon,Somerset,76.11,,,,,Single-ply,SBD,M
Boys,89.81,1,Joseph Bueno,Somerset,89.81,278.96,147.42,260.82,687.19,Single-ply,SBD,M
Boys,89.81,2,Beau Medrano,Dilley,87.45,235.87,140.61,195.04,571.53,Single-ply,SBD,M
Boys,89.81,3,Elias Torres,Somerset,85.28,235.87,129.27,199.58,564.72,Single-ply,SBD,M
Boys,89.81,4,Michael Gonzalez,Somerset,83.64,231.33,117.93,206.38,555.65,Single-ply,SBD,M
Boys,89.81,5,Daneil Sambrono,La Pryor,86.45,192.78,115.67,190.51,498.95,Single-ply,SBD,M
Boys,89.81,6,Jose Huerrero,Somerset,83.46,174.63,97.52,208.65,480.81,Single-ply,SBD,M
Boys,89.81,7,Richie Perez,La Pryor,82.64,183.7,111.13,183.7,478.54,Single-ply,SBD,M
Boys,89.81,8,Alex Luna,Crystal City,88.9,181.44,113.4,174.63,469.47,Single-ply,SBD,M
Boys,89.81,9,Juan Martinez,Dilley,84.55,167.83,83.91,183.7,435.45,Single-ply,SBD,M
Boys,89.81,10,Max Marchan,Laredo Nixon,88.63,151.95,86.18,158.76,396.89,Single-ply,SBD,M
Boys,89.81,11,Diego Reyes,Carrizo Springs,89.72,95.25,63.5,106.59,265.35,Single-ply,SBD,M
Boys,99.79,1,Mario Mendoza,Carrizo Springs,98.34,265.35,165.56,231.33,662.24,Single-ply,SBD,M
Boys,99.79,2,Manuel Garcia,Somerset,92.44,297.1,138.35,224.53,659.98,Single-ply,SBD,M
Boys,99.79,3,Marty Trevino,Dilley,96.25,215.46,142.88,231.33,589.67,Single-ply,SBD,M
Boys,99.79,4,Ricardo Casteneda,Crystal City,97.98,210.92,124.74,215.46,551.11,Single-ply,SBD,M
Boys,99.79,5,David Castro,Carrizo Springs,97.79,183.7,151.95,174.63,510.29,Single-ply,SBD,M
Boys,99.79,6,Edward Roya,Castroville Medina Valley,98.79,197.31,133.81,147.42,478.54,Single-ply,SBD,M
Boys,99.79,7,Aaron Ramirez,Dilley,91.26,195.04,90.72,90.72,376.48,Single-ply,SBD,M
Boys,99.79,8,James Vasquez,La Pryor,95.71,149.69,72.57,124.74,347,Single-ply,SBD,M
Boys,99.79,9,Homer Arredondo,Crystal City,94.89,117.93,68.04,147.42,333.39,Single-ply,SBD,M
Boys,109.77,1,Eddie Moreno,Somerset,109.13,326.59,197.31,265.35,789.25,Single-ply,SBD,M
Boys,109.77,2,Trace Ferguson,Castroville Medina Valley,108.59,233.6,131.54,204.12,569.26,Single-ply,SBD,M
Boys,109.77,3,Jeffery De Leon,Carrizo Springs,105.23,199.58,127.01,217.72,544.31,Single-ply,SBD,M
Boys,109.77,4,Spencer Payne,Castroville Medina Valley,107.41,217.72,131.54,183.7,532.97,Single-ply,SBD,M
Boys,109.77,5,Joe Gutierrez,Crystal City,103.19,217.72,104.33,192.78,514.83,Single-ply,SBD,M
Boys,109.77,6,Daniel Ramos,Somerset,108.32,208.65,127.01,163.29,498.95,Single-ply,SBD,M
Boys,109.77,7,Michael Perez,Crystal City,108.64,210.92,95.25,170.1,476.27,Single-ply,SBD,M
Boys,109.77,8,Daniel Garza,Carrizo Springs,102.51,167.83,111.13,190.51,469.47,Single-ply,SBD,M
Boys,109.77,9,Lino Castro,Crystal City,100.7,201.85,81.65,158.76,442.25,Single-ply,SBD,M
Boys,109.77,10,Michael Rodriguez #11,Somerset,109.5,142.88,104.33,172.37,419.57,Single-ply,SBD,M
Boys,109.77,11,Colton Reddick,Carrizo Springs,104.96,142.88,74.84,138.35,356.07,Single-ply,SBD,M
Boys,124.74,1,Christian Lopez #7,La Pryor,120.11,258.55,142.88,244.94,646.37,Single-ply,SBD,M
Boys,124.74,2,Reynaldo Mendoza,Crystal City,112.49,272.16,127.01,217.72,616.89,Single-ply,SBD,M
Boys,124.74,3,Abel Mendoza,Laredo Nixon,113.76,258.55,151.95,195.04,605.55,Single-ply,SBD,M
Boys,124.74,4,Sebastian Ramirez,Castroville Medina Valley,121.65,254.01,127.01,213.19,594.21,Single-ply,SBD,M
Boys,124.74,5,Brandon Orosco,Carrizo Springs,118.84,244.94,138.35,208.65,591.94,Single-ply,SBD,M
Boys,124.74,6,Mark Ruiz,Crystal City,117.03,233.6,122.47,208.65,564.72,Single-ply,SBD,M
Boys,124.74,7,Bobby Rocha,Crystal City,114.53,183.7,92.99,167.83,444.52,Single-ply,SBD,M
Boys,124.74,DQ,Manuel Trevino,Crystal City,115.67,127.01,,,,Single-ply,SBD,M
Boys,124.74+,1,Jonah Barrow,Castroville Medina Valley,140.61,265.35,158.76,204.12,628.23,Single-ply,SBD,M
Boys,124.74+,2,Isaiah Reyna,Somerset,146.42,272.16,102.06,219.99,594.21,Single-ply,SBD,M
Boys,124.74+,3,Ernesto Moreno,Castroville Medina Valley,159.03,249.48,154.22,183.7,587.4,Single-ply,SBD,M
Boys,124.74+,DQ,Oziel Lugo,Laredo Nixon,131.81,204.12,133.81,199.58,,Single-ply,SBD,M
Boys,124.74+,DQ,Jermayne Ortegon,La Pryor,132.27,183.7,,,,Single-ply,SBD,M
Boys,124.74+,DQ,Sebastian Ramirez,Somerset,134.72,,,,,Single-ply,SBD,M
Boys,,NS,Pierce Ramirez,Dilley,,,,,,Single-ply,SBD,M
Boys,,NS,Dustin Dominguez,Dilley,,,,,,Single-ply,SBD,M
Boys,,NS,Fabian Santos,Dilley,,,,,,Single-ply,SBD,M
Boys,,NS,Abraham Rosas,Del Rio,,,,,,Single-ply,SBD,M
Boys,,NS,Gabriel Aguirre,Del Rio,,,,,,Single-ply,SBD,M
Boys,,NS,Ronnie Galindo,Del Rio,,,,,,Single-ply,SBD,M
Boys,,NS,Joseph Rodriguez,Del Rio,,,,,,Single-ply,SBD,M
Boys,,NS,Abee Hinojosa,Del Rio,,,,,,Single-ply,SBD,M
Boys,,NS,Gerry Gonzalez,Del Rio,,,,,,Single-ply,SBD,M
Boys,,NS,Carlos Mandin,Del Rio,,,,,,Single-ply,SBD,M
Boys,,NS,Joseph Sulaica,Del Rio,,,,,,Single-ply,SBD,M
Boys,,NS,Manny Arguijo,Del Rio,,,,,,Single-ply,SBD,M
Boys,,NS,Jose Mendoza #1,Del Rio,,,,,,Single-ply,SBD,M
Boys,,NS,Dizan Rodriguez,Del Rio,,,,,,Single-ply,SBD,M
Boys,,NS,Christian Ramirez #2,Del Rio,,,,,,Single-ply,SBD,M
Boys,,NS,Matthew Hughes #1,Del Rio,,,,,,Single-ply,SBD,M
Boys,,NS,Aaron Urrutia,Del Rio,,,,,,Single-ply,SBD,M
Boys,,NS,Alejandro Flores,Del Rio,,,,,,Single-ply,SBD,M
Boys,,NS,Nick Padilla,Del Rio,,,,,,Single-ply,SBD,M
Boys,,NS,Ricky Gonzalez,Del Rio,,,,,,Single-ply,SBD,M
Boys,,NS,Eladio Arreola,Center Point,,,,,,Single-ply,SBD,M
Boys,,NS,Ethan Ozuna,Center Point,,,,,,Single-ply,SBD,M
Boys,,NS,Paulo Valadez,Center Point,,,,,,Single-ply,SBD,M
