Place,Name,CyrillicName,Sex,Division,Equipment,BodyweightKg,WeightClassKg,BirthDate,BirthYear,Bench1Kg,Bench2Kg,Bench3Kg,Bench4Kg,Best3BenchKg,TotalKg,Event
1,Anastasiya Reshetina,Анастасия Решетина,F,Open,Raw,47.7,48,,1989,32.5,35,37.5,40,37.5,37.5,B
1,Marina Gorbachyova,Марина Горбачёва,F,Open,Raw,54.8,56,,1983,65,67.5,70,72.5,70,70,B
1,Olga Maksimovich,Ольга Максимович,F,Open,Raw,57.7,60,,1985,35,40,-42.5,,40,40,B
1,Ekaterina Kutuzova,Екатерина Кутузова,F,Open,Raw,73.8,75,,1984,60,62.5,65,,65,65,B
1,Vadim Kuvshinov,Вадим Кувшинов,M,Open,Raw,42.4,52,,2010,25,30,-35,,30,30,B
1,Andrey Latyshev,Андрей Латышев,M,Open,Raw,67.3,67.5,,1997,-120,120,122.5,125,122.5,122.5,B
1,Dmitriy Abakumov,Дмитрий Абакумов,M,Open,Raw,82.4,82.5,,1985,160,165,167.5,170,167.5,167.5,B
1,Vitaliy Gribov,Виталий Грибов,M,Open,Raw,94.2,100,,1985,130,137.5,142.5,145,142.5,142.5,B
2,Artyom Vilimovich,Артём Вилимович,M,Open,Raw,91.7,100,,1986,120,-130,130,-140,130,130,B
