Name,Team,Sex,BirthDate,Division,BodyweightKg,WeightClassKg,Squat1Kg,Squat2Kg,Squat3Kg,Best3SquatKg,Bench1Kg,Bench2Kg,Bench3Kg,Best3BenchKg,Deadlift1Kg,Deadlift2Kg,Deadlift3Kg,Best3DeadliftKg,TotalKg,Place,Event,Equipment
Emilie Martin,Trilport,F,1986-09-01,F-O,53.1,55.5,105,110,-115,110,60,-65,-65,60,115,117.5,122.5,122.5,292.5,1,SBD,Raw
Charles Maheust,Lisieux,M,2000-02-22,M-T3,57.2,60,100,110,120,120,70,75,-77.5,75,140,150,-160,150,345,1,SBD,Raw
Luccio Agostini,Beauvoir,M,1971-03-27,M-M2,67.1,67.5,120,130,140,140,110,117.5,122.5,122.5,140,150,160,160,422.5,1,SBD,Raw
Alexis Eude,Lisieux,M,1996-08-20,M-JR,73.2,75,110,117.5,125,125,-100,105,107.5,107.5,155,162.5,170,170,402.5,1,SBD,Raw
Thomas Quelet,Trilport,M,1999-10-28,M-JR,,75,,,,,,,,,,,,,,DQ,SBD,Raw
Yohann Grandjean,Yerres,M,1992-01-17,M-O,74.4,75,-125,125,132.5,132.5,95,100,105,105,165,175,182.5,182.5,420,1,SBD,Raw
Pascal Costa,Vitry,M,1967-01-04,M-M3,74.9,75,107.5,112.5,115,115,107.5,112.5,-117.5,112.5,140,-155,-155,140,367.5,1,SBD,Raw
Patrick Tellier,Bonelles,M,1955-06-21,M-M5,74.5,75,105,110,-112.5,110,87.5,-92.5,92.5,92.5,135,142.5,-147.5,142.5,345,1,SBD,Raw
Daniel Brunet,Duclair,M,1951-04-29,M-M6,71.6,75,125,130,135,135,80,85,-90,85,145,155,160,160,380,1,SBD,Raw
Eric Lagarde,Bonelles,M,1980-11-10,M-O,78.4,82.5,140,150,-155,150,112.5,117.5,122.5,122.5,165,175,185,185,457.5,2,SBD,Raw
François Hebert,Deville,M,1986-08-18,M-O,82.3,82.5,-140,140,145,145,112.5,115,117.5,117.5,177.5,-185,-185,177.5,440,3,SBD,Raw
Madjid Zenasni,ASCP,M,1996-01-13,M-O,82.4,82.5,165,170,,170,115,120,122.5,122.5,195,202.5,207.5,207.5,500,1,SBD,Raw
David Perroud,,M,1969-02-23,M-M3,,82.5,,,,,,,,,,,,,,DQ,SBD,Raw
Daniel Fortier,Evreux,M,1958-12-11,M-M5,82,82.5,165,170,175,175,105,112.5,117.5,117.5,200,210,,210,502.5,1,SBD,Raw
Jeremy Tekasala,ASCP,M,1989-10-25,M-O,,82.5,,,,,,,,,,,,,,DQ,SBD,Raw
Sofiane Ayachi,CHCB,M,2001-03-18,M-T3,102.1,110,145,160,170,170,-110,110,-120,110,180,200,220,220,500,1,SBD,Raw
Gilles Hubert,Bonelles,M,1965-06-04,M-M3,104.5,110,190,205,,205,122.5,-130,130,130,220,250,-260,250,585,1,SBD,Raw
Chistophe Hetch,Yerres,M,1990-11-14,M-O,,110,,,,,,,,,,,,,,DQ,SBD,Raw
Ophelie Mace,Lisieux,F,1991-01-05,F-O,59.2,63,70,75,80,80,,,,,,,,,80,1,S,Raw
Yannick Lebourg,Gournay,M,1979-09-07,M-M1,74.7,75,140,147.5,152.5,152.5,,,,,,,,,152.5,1,S,Raw
Philippe Cazorla,Oissel,M,1959-12-14,M-M5,74.9,75,110,117.5,,117.5,,,,,,,,,117.5,1,S,Raw
Nicole Debail,Lisieux,F,1961-01-14,F-M4,43.3,44,,,,,50,52.5,-57.5,52.5,,,,,52.5,1,B,Raw
Corinne Larée,Evreux,F,1967-08-26,F-M3,52.5,53,,,,,52.5,55,57.5,57.5,,,,,57.5,1,B,Raw
Fatiha Chettibi,Billy Montigny,F,1990-06-05,F-O,57,58.5,,,,,-85,85,-87.5,85,,,,,85,1,B,Raw
Sophie Hebert,Deville,F,1989-08-21,F-O,58.5,58.5,,,,,65,70,-72.5,70,,,,,70,2,B,Raw
Marie-Line Demare,Beauvoir,F,1963-09-06,F-M4,62.5,63,,,,,50,52.5,55,55,,,,,55,1,B,Raw
Sylvie Delaporte,Maromme,F,1964-03-31,F-M4,68.2,70,,,,,50,55,,55,,,,,55,1,B,Raw
Clelia Denos,Saint Aubin,F,1986-06-05,F-O,,70,,,,,,,,,,,,,,DQ,B,Raw
Marie-Christine Larée,Evreux,F,1968-12-25,F-M3,83.7,90,,,,,60,65,-70,65,,,,,65,1,B,Raw
Lena Masseline Renard,Lisieux,F,2005-01-12,F-T1,57.8,58.5,,,,,35,40,-45,40,,,,,40,1,B,Raw
Ibrahim Dem,Saint Aubin,M,1990-08-04,M-O,,75,,,,,,,,,,,,,,DQ,B,Raw
Cyrille Cusumano,Caudebec,M,1970-12-06,M-M2,71.7,75,,,,,102.5,110,112.5,112.5,,,,,112.5,1,B,Raw
Nicolas Isacesco,Vitry,M,1962-12-07,M-M4,75,75,,,,,82.5,87.5,-90,87.5,,,,,87.5,1,B,Raw
Daniel Delaporte,Maromme,M,1948-05-21,M-M7,74.7,75,,,,,92.5,97.5,102.5,102.5,,,,,102.5,1,B,Raw
Thibault Auguste,Gournay,M,1998-09-15,M-JR,57.4,60,,,,,72.5,77.5,82.5,82.5,,,,,82.5,1,B,Raw
Nathan Tellier,Caudebec,M,2001-09-09,M-T3,,67.5,,,,,,,,,,,,,,DQ,B,Raw
Anthony Pauchard,Gournay,M,1998-10-06,M-JR,62.5,67.5,,,,,112.5,117.5,-120,117.5,,,,,117.5,1,B,Raw
Rémi Duchenne,Gournay,M,1992-09-19,M-O,67.5,67.5,,,,,105,110,-115,110,,,,,110,1,B,Raw
Daniel Vallée,Lisieux,M,1967-06-29,M-M3,65.5,67.5,,,,,95,100,-102.5,100,,,,,100,1,B,Raw
Ali Hamaissia,Beauvoir,M,1967-02-11,M-M3,,67.5,,,,,,,,,,,,,,DQ,B,Raw
Dominique Loquet,Caudebec,M,1962-09-15,M-M4,66.1,67.5,,,,,85,90,-95,90,,,,,90,1,B,Raw
Dider Debail,Lisieux,M,1956-08-24,M-M5,66.2,67.5,,,,,100,105,107.5,107.5,,,,,107.5,1,B,Raw
Bruno Maury,Deville,M,1958-10-15,M-M5,67,67.5,,,,,85,90,-95,90,,,,,90,2,B,Raw
Jean-Pierre Chavatte,Gournay,M,1949-10-06,M-M7,66.9,67.5,,,,,62.5,-67.5,-67.5,62.5,,,,,62.5,1,B,Raw
Léo Massi,Caudebec,M,1938-03-28,M-M9,66.7,67.5,,,,,72.5,75,-77.5,75,,,,,75,1,B,Raw
Maxime Tardy,ASCP,M,2001-04-20,M-T3,76.3,82.5,,,,,95,100,102.5,102.5,,,,,102.5,1,B,Raw
Hugo Prunier,Gournay,M,2001-10-15,M-T3,,82.5,,,,,,,,,,,,,,DQ,B,Raw
Norman Camier,Gournay,M,1998-08-12,M-JR,81.8,82.5,,,,,105,110,-115,110,,,,,110,2,B,Raw
Alexandre Grain,Maromme,M,1997-05-06,M-JR,80.1,82.5,,,,,120,125,130,130,,,,,130,1,B,Raw
Pierre Soumagne,Muscle Gym,M,1987-10-01,M-O,,82.5,,,,,,,,,,,,,,DQ,B,Raw
Gwennael Lechanoine,Lisieux,M,1967-11-04,M-M3,77.2,82.5,,,,,125,130,135,135,,,,,135,1,B,Raw
Mohand Kadoun,Caudebec,M,1964-03-24,M-M4,82.2,82.5,,,,,110,120,-122.5,120,,,,,120,1,B,Raw
Michel Soranzo,Bonelles,M,1958-03-21,M-M5,81.4,82.5,,,,,117.5,122.5,-125,122.5,,,,,122.5,1,B,Raw
Philippe Boudot,Bonelles,M,1957-07-11,M-M5,79.7,82.5,,,,,102.5,107.5,-110,107.5,,,,,107.5,2,B,Raw
Alain Schall,Caudebec,M,1950-11-05,M-M6,79.4,82.5,,,,,92.5,97.5,100,100,,,,,100,2,B,Raw
Jean-Claude Peter,,M,1951-02-12,M-M6,80.7,82.5,,,,,97.5,-102.5,102.5,102.5,,,,,102.5,1,B,Raw
Pascal LeBlanc,CHCB,M,1963-04-14,M-M4,97.4,100,,,,,130,-135,-135,130,,,,,130,1,B,Raw
Jacky Bussiere,ASCP,M,1952-07-11,M-M6,95.4,100,,,,,132.5,137.5,-140,137.5,,,,,137.5,1,B,Raw
Pierre Vallais,Caudebec,M,1947-05-14,M-M7,99.2,100,,,,,120,125,127.5,127.5,,,,,127.5,1,B,Raw
Jeffrey Retureau,ASCP,M,1991-02-11,M-O,87,90,,,,,127.5,132.5,137.5,137.5,,,,,137.5,1,B,Raw
Jérôme Prevot,Caudebec,M,1974-06-19,M-M2,86.3,90,,,,,142.5,150,-155,150,,,,,150,2,B,Raw
Romauld Boudekhane,Maromme,M,1972-03-14,M-M2,89.7,90,,,,,135,140,145,145,,,,,145,3,B,Raw
Richard Navarre,Duclair,M,1974-01-09,M-M2,89,90,,,,,145,152.5,,152.5,,,,,152.5,1,B,Raw
Thierry Mathieu,Oissel,M,1961-03-21,M-M4,85.1,90,,,,,100,110,,110,,,,,110,1,B,Raw
Fabrice Marchet,ASCP,M,1961-08-11,M-M4,89.5,90,,,,,110,-112.5,,110,,,,,110,2,B,Raw
Daniel Mouchard,Saint Aubin,M,1948-06-17,M-M7,,110,,,,,,,,,,,,,,DQ,B,Raw
Kamorudeen Animashaun,Maromme,M,1970-11-07,M-M2,107.4,110,,,,,160,170,,170,,,,,170,1,B,Raw
Philippe Belloncle,Maromme,M,1960-04-22,M-M4,104.2,110,,,,,120,125,130,130,,,,,130,1,B,Raw
Joël Godon,Maromme,M,1957-02-06,M-M5,104.3,110,,,,,115,122.5,125,125,,,,,125,1,B,Raw
Cédric Colange,Maromme,M,1982-11-16,M-O,121.1,125,,,,,170,180,-185,180,,,,,180,1,B,Raw
Patrick Ruch,Lisieux,M,1962-11-02,M-M4,134.1,145,,,,,135,140,-145,140,,,,,140,1,B,Raw
Vincent Grandamme,Billy Montigny,M,1989-08-05,M-O,170.8,145+,,,,,170,180,185,185,,,,,185,1,B,Raw
Ophelie Mace,Lisieux,F,1991-01-05,F-O,59.2,63,,,,,,,,,100,105,110,110,110,1,D,Raw
Lisa Meziani,Physical,F,2001-06-22,F-T3,68.5,70,,,,,,,,,95,105,112.5,112.5,112.5,1,D,Raw
Laurie Avenel,Oissel,F,1996-01-02,F-O,,63,,,,,,,,,,,,,,DQ,D,Raw
Thibault Auguste,Gournay,M,1998-09-15,M-JR,57.4,60,,,,,,,,,135,142.5,150,150,150,1,D,Raw
Anthony Pauchard,Gournay,M,1998-10-06,M-JR,62.5,67.5,,,,,,,,,160,170,,170,170,1,D,Raw
Rémi Duchenne,Gournay,M,1992-09-19,M-O,67.5,67.5,,,,,,,,,140,150,-160,150,150,1,D,Raw
Yannick Lebourg,Gournay,M,1979-09-07,M-M1,74.7,75,,,,,,,,,170,180,190,190,190,1,D,Raw
Daniel Delaporte,Maromme,M,1948-05-21,M-M7,74.7,75,,,,,,,,,150,165,180,180,180,1,D,Raw
Norman Camier,Gournay,M,1998-08-12,M-JR,81.8,82.5,,,,,,,,,182.5,190,200,200,200,1,D,Raw
Philippe Boudot,Bonelles,M,1957-07-11,M-M5,79.7,82.5,,,,,,,,,152.5,160,170,170,170,1,D,Raw
Richard Navarre,Duclair,M,1974-01-09,M-M2,89,90,,,,,,,,,200,215,,215,215,1,D,Raw
Jonny Piotrowski,Oissel,M,1961-07-29,M-M4,97.6,100,,,,,,,,,160,172.5,-175,172.5,172.5,1,D,Raw
Joël Godon,Maromme,M,1957-02-06,M-M5,104.3,110,,,,,,,,,165,185,200,200,200,1,D,Raw
Sullivan Porquet,,M,1976-02-14,M-M1,121.4,125,,,,,,,,,245,262.5,275,275,275,1,D,Raw
