Division,WeightClassKg,Place,Name,Team,BodyweightKg,Best3SquatKg,Best3BenchKg,Best3DeadliftKg,TotalKg,Equipment,Event,Sex
Boys,51.71,1,Joel Santillan,Clifton,49.9,124.74,81.65,145.15,351.53,Single-ply,SBD,M
Boys,51.71,2,Benjamin Galindo,Brady,50.08,122.47,65.77,131.54,319.78,Single-ply,SBD,M
Boys,51.71,3,Barrett Hubbard,Moody,51.71,106.59,72.57,120.2,299.37,Single-ply,SBD,M
Boys,51.71,4,Weston Schasteen,Clifton,51.26,106.59,54.43,127.01,288.03,Single-ply,SBD,M
Boys,51.71,5,Brazos Gibson,Axtell,50.53,113.4,49.9,111.13,274.42,Single-ply,SBD,M
Boys,51.71,6,Colby Williamson,Troy,50.98,102.06,63.5,102.06,267.62,Single-ply,SBD,M
Boys,51.71,7,Bryce Leatherwood,Dublin,47.99,95.25,56.7,113.4,265.35,Single-ply,SBD,M
Boys,51.71,8,Levi Goudeau,Anderson-Shiro,47.63,95.25,54.43,99.79,249.48,Single-ply,SBD,M
Boys,51.71,9,Eddie Guerrero,Comanche,49.08,77.11,49.9,83.91,210.92,Single-ply,SBD,M
Boys,51.71,DQ,Bill Bridges,Rio Vista,50.89,,,,,Single-ply,SBD,M
Boys,51.71,DQ,Kade Pace,Lago Vista,51.17,124.74,54.43,,,Single-ply,SBD,M
Boys,55.79,1,Joe-Angel Carpenter,Troy,54.98,149.69,90.72,163.29,403.7,Single-ply,SBD,M
Boys,55.79,2,Michael Oster,Troy,55.07,147.42,79.38,149.69,376.48,Single-ply,SBD,M
Boys,55.79,3,Daniel Pina,Comanche,53.98,142.88,77.11,145.15,365.14,Single-ply,SBD,M
Boys,55.79,4,Zach Kelley,Early,53.98,133.81,99.79,127.01,360.61,Single-ply,SBD,M
Boys,55.79,5,Alexander Hernandez,Jarrell,55.61,127.01,83.91,133.81,344.73,Single-ply,SBD,M
Boys,55.79,6,Collin Taylor,Thorndale,55.7,131.54,68.04,136.08,335.66,Single-ply,SBD,M
Boys,55.79,7,Caleb Galindo,Brady,54.34,120.2,68.04,131.54,319.78,Single-ply,SBD,M
Boys,55.79,8,Quincy Larson,Hamilton,55.52,108.86,68.04,142.88,319.78,Single-ply,SBD,M
Boys,55.79,9,Jeovanny Navarro,Rockdale,52.16,111.13,61.23,129.27,301.64,Single-ply,SBD,M
Boys,55.79,10,Lane Francis,Bosqueville,54.43,113.4,65.77,117.93,297.1,Single-ply,SBD,M
Boys,55.79,DQ,Elijah Botts,Holland,55.43,117.93,54.43,,,Single-ply,SBD,M
Boys,59.87,1,Hunter Mullins,Jarrell,58.42,190.51,102.06,199.58,492.15,Single-ply,SBD,M
Boys,59.87,2,Bryan McNeill,Rogers,59.87,185.97,79.38,185.97,451.32,Single-ply,SBD,M
Boys,59.87,3,Sbastian Flores,Blanco,56.97,167.83,104.33,176.9,449.06,Single-ply,SBD,M
Boys,59.87,4,Isaack Santillan,Clifton,56.7,167.83,108.86,156.49,433.18,Single-ply,SBD,M
Boys,59.87,5,Casey Stevenson,Rio Vista,59.15,158.76,92.99,179.17,430.91,Single-ply,SBD,M
Boys,59.87,6,Christian Flores,Blanco,59.15,170.1,79.38,149.69,399.16,Single-ply,SBD,M
Boys,59.87,7,Gavin Freeman,Little River Academy,59.87,149.69,83.91,151.95,385.55,Single-ply,SBD,M
Boys,59.87,8,Brian Elliston,Brady,57.7,147.42,79.38,154.22,381.02,Single-ply,SBD,M
Boys,59.87,9,Johnny Lewis,Bruceville-Eddy,58.69,136.08,79.38,165.56,381.02,Single-ply,SBD,M
Boys,59.87,10,Isaiah Nix,Dublin,59.51,131.54,77.11,161.03,369.68,Single-ply,SBD,M
Boys,59.87,11,Lionel Munoz,Comanche,56.61,129.27,79.38,145.15,353.8,Single-ply,SBD,M
Boys,59.87,12,Robby Brewer,Clifton,58.88,158.76,86.18,108.86,353.8,Single-ply,SBD,M
Boys,67.13,1,Dillon Daniel,Crawford,66.59,226.8,113.4,197.31,537.51,Single-ply,SBD,M
Boys,67.13,2,Steven Flores,Blanco,65.86,199.58,111.13,195.04,505.76,Single-ply,SBD,M
Boys,67.13,3,Ethan Pierce,Rogers,66.68,197.31,104.33,192.78,494.42,Single-ply,SBD,M
Boys,67.13,4,Jalil Mahummad,Groesbeck,62.41,188.24,117.93,185.97,492.15,Single-ply,SBD,M
Boys,67.13,5,Sergio Gonzalez,Troy,66.32,188.24,108.86,192.78,489.88,Single-ply,SBD,M
Boys,67.13,6,Alex Reynoso,West,64.77,179.17,104.33,190.51,474,Single-ply,SBD,M
Boys,67.13,7,Daniel Kelso,Lago Vista,63.68,174.63,97.52,195.04,467.2,Single-ply,SBD,M
Boys,67.13,8,George Sanchez,Luling,67.13,167.83,86.18,181.44,435.45,Single-ply,SBD,M
Boys,67.13,9,Trevor Higginbotham,Comanche,66.5,174.63,83.91,174.63,433.18,Single-ply,SBD,M
Boys,67.13,DQ,Blake Pettit,Hamilton,66.86,156.49,83.91,,,Single-ply,SBD,M
Boys,67.13,DQ,Andrew Small,Wallis Brazos,66.95,,,,,Single-ply,SBD,M
Boys,67.13,DQ,DeMarcus McQurter,Hubbard,67.13,,,,,Single-ply,SBD,M
Boys,74.84,1,Nathan Gerik,West,73.57,215.46,127.01,208.65,551.11,Single-ply,SBD,M
Boys,74.84,2,Kolby Pederson,Hubbard,73.12,219.99,122.47,206.38,548.85,Single-ply,SBD,M
Boys,74.84,3,Logan Thomas,Early,74.48,195.04,138.35,199.58,532.97,Single-ply,SBD,M
Boys,74.84,4,Jacob Riley,Dublin,73.03,185.97,102.06,238.14,526.17,Single-ply,SBD,M
Boys,74.84,5,Austin Sauceda,Axtell,71.49,210.92,113.4,199.58,523.9,Single-ply,SBD,M
Boys,74.84,6,Taylor Sands,Little River Academy,73.84,192.78,124.74,206.38,523.9,Single-ply,SBD,M
Boys,74.84,7,Dalton Baker,West,73.94,199.58,113.4,190.51,503.49,Single-ply,SBD,M
Boys,74.84,8,Jim Fowler,Early,73.39,195.04,115.67,188.24,498.95,Single-ply,SBD,M
Boys,74.84,9,Martin Najera,Hamilton,73.66,181.44,97.52,204.12,483.08,Single-ply,SBD,M
Boys,74.84,DQ,Joe Gilligan,Comanche,73.57,185.97,,,,Single-ply,SBD,M
Boys,74.84,DQ,Nacho Rios,Comanche,72.85,,,,,Single-ply,SBD,M
Boys,74.84,DQ,Chris Williams #2,Rio Vista,73.66,199.58,108.86,,,Single-ply,SBD,M
Boys,82.1,1,Hunter Douzat,Little River Academy,80.47,272.16,167.83,235.87,675.85,Single-ply,SBD,M
Boys,82.1,2,Michael Rodriguez #7,Axtell,80.56,263.08,124.74,288.03,675.85,Single-ply,SBD,M
Boys,82.1,3,Jason Faulkner,Comfort,78.47,222.26,138.35,219.99,580.6,Single-ply,SBD,M
Boys,82.1,4,Luke Whiteley,Little River Academy,80.56,213.19,140.61,217.72,571.53,Single-ply,SBD,M
Boys,82.1,5,Ryan Hill #1,Lago Vista,80.92,238.14,124.74,197.31,560.19,Single-ply,SBD,M
Boys,82.1,6,John Jackson #1,Hempstead,79.65,174.63,108.86,215.46,498.95,Single-ply,SBD,M
Boys,82.1,7,Kade Mercer,Comanche,79.02,181.44,120.2,192.78,494.42,Single-ply,SBD,M
Boys,82.1,8,Ryan Lloyd,Clifton,79.47,185.97,124.74,167.83,478.54,Single-ply,SBD,M
Boys,82.1,9,Moe Bryson,Lago Vista,76.29,183.7,90.72,201.85,476.27,Single-ply,SBD,M
Boys,82.1,DQ,Dylan Hines,Lago Vista,75.84,,,,,Single-ply,SBD,M
Boys,82.1,DQ,Kaleb Hairston,Thorndale,78.74,254.01,,,,Single-ply,SBD,M
Boys,89.81,1,Drew Roberts,Bosqueville,87.27,249.48,165.56,204.12,619.15,Single-ply,SBD,M
Boys,89.81,2,Vincent Wilson,Rogers,88.99,229.06,158.76,222.26,610.08,Single-ply,SBD,M
Boys,89.81,3,Myles McGruder,Groesbeck,84.91,224.53,124.74,233.6,582.87,Single-ply,SBD,M
Boys,89.81,4,Cortney Young #2,Rogers,87.36,242.67,124.74,215.46,582.87,Single-ply,SBD,M
Boys,89.81,5,Emiliano Jimenez,Comanche,84.64,226.8,127.01,219.99,573.79,Single-ply,SBD,M
Boys,89.81,6,Greg Williams,McGregor,88.72,213.19,122.47,226.8,562.45,Single-ply,SBD,M
Boys,89.81,7,Joe Torres #6,Brady,84.19,226.8,131.54,201.85,560.19,Single-ply,SBD,M
Boys,89.81,8,Aaron Harralson,West,88.72,217.72,145.15,197.31,560.19,Single-ply,SBD,M
Boys,89.81,9,Nico Keaton,Rogers,87.18,204.12,136.08,204.12,544.31,Single-ply,SBD,M
Boys,89.81,10,Koby Smith,Crawford,87.27,219.99,124.74,199.58,544.31,Single-ply,SBD,M
Boys,89.81,11,Garrett Roeder,Cameron Yoe,84.46,195.04,117.93,192.78,505.76,Single-ply,SBD,M
Boys,89.81,DQ,Eric Rosson,Grandview,87.45,,,,,Single-ply,SBD,M
Boys,99.79,1,Mike Castillo,McGregor,95.62,263.08,161.03,263.08,687.19,Single-ply,SBD,M
Boys,99.79,2,Alex Falcon,Troy,96.71,254.01,151.95,251.74,657.71,Single-ply,SBD,M
Boys,99.79,3,Que'Sean Gildon,Lago Vista,98.7,306.17,129.27,222.26,657.71,Single-ply,SBD,M
Boys,99.79,4,Miguel Elizondo,Early,93.89,272.16,147.42,222.26,641.83,Single-ply,SBD,M
Boys,99.79,5,Aaron Benitez,McGregor,92.44,263.08,145.15,215.46,623.69,Single-ply,SBD,M
Boys,99.79,6,Alex Parsons,McGregor,95.8,235.87,136.08,226.8,598.74,Single-ply,SBD,M
Boys,99.79,7,Zach Menkin,Lago Vista,91.35,229.06,142.88,219.99,591.94,Single-ply,SBD,M
Boys,99.79,8,Mason King,Tolar,96.25,231.33,133.81,217.72,582.87,Single-ply,SBD,M
Boys,99.79,9,Conner Sharp,Comfort,96.52,242.67,133.81,206.38,582.87,Single-ply,SBD,M
Boys,99.79,10,Nico Vargas,Cameron Yoe,93.17,240.4,120.2,204.12,564.72,Single-ply,SBD,M
Boys,99.79,DQ,Luciano Garza,Jarrell,91.53,201.85,129.27,,,Single-ply,SBD,M
Boys,109.77,1,Erick Marton,Axtell,107.77,299.37,165.56,272.16,737.09,Single-ply,SBD,M
Boys,109.77,2,Chandler Strmiska,Little River Academy,105.23,272.16,192.78,254.01,718.94,Single-ply,SBD,M
Boys,109.77,3,Zach Solano,Rogers,102.87,278.96,167.83,210.92,657.71,Single-ply,SBD,M
Boys,109.77,4,Michael Brietzke,Luling,105.87,260.82,136.08,240.4,637.3,Single-ply,SBD,M
Boys,109.77,5,Ismael Rocha,Holland,107.5,272.16,111.13,231.33,614.62,Single-ply,SBD,M
Boys,109.77,6,Dylan Sims,Jarrell,105.6,226.8,161.03,224.53,612.35,Single-ply,SBD,M
Boys,109.77,7,Eric Butler,Holland,105.41,242.67,142.88,215.46,601.01,Single-ply,SBD,M
Boys,109.77,8,Will Worrell,Crawford,105.23,251.74,127.01,215.46,594.21,Single-ply,SBD,M
Boys,109.77,9,Jaxon Tucker,Brady,105.05,233.6,122.47,233.6,589.67,Single-ply,SBD,M
Boys,109.77,10,Justin Raw,Little River Academy,100.06,217.72,138.35,226.8,582.87,Single-ply,SBD,M
Boys,109.77,DQ,Jaime Lopez,Hempstead,105.69,183.7,,,,Single-ply,SBD,M
Boys,124.74,1,Blake Johnson,Franklin,123.29,331.12,183.7,278.96,793.79,Single-ply,SBD,M
Boys,124.74,2,Pedro Bernal,Comanche,111.86,306.17,156.49,272.16,734.82,Single-ply,SBD,M
Boys,124.74,3,Ethan Price,Dublin,113.22,260.82,204.12,238.14,703.07,Single-ply,SBD,M
Boys,124.74,4,Seth Kohlscheen,Crawford,122.65,276.69,145.15,240.4,662.24,Single-ply,SBD,M
Boys,124.74,5,Miguel Guevara,Tolar,116.48,242.67,147.42,244.94,635.03,Single-ply,SBD,M
Boys,124.74,6,Dortavious Lewis,Cameron Yoe,118.21,254.01,154.22,199.58,607.81,Single-ply,SBD,M
Boys,124.74,7,Crispin Salinas,Chilton,111.49,226.8,129.27,224.53,580.6,Single-ply,SBD,M
Boys,124.74,8,Yoqsam Orea,Wallis Brazos,121.93,226.8,149.69,188.24,564.72,Single-ply,SBD,M
Boys,124.74,9,Joe Fallwell,Whitney,111.77,195.04,136.08,229.06,560.19,Single-ply,SBD,M
Boys,124.74,10,Andrew Diver,Rockdale,119.48,233.6,140.61,176.9,551.11,Single-ply,SBD,M
Boys,124.74,DQ,Adrian Bravo,Jarrell,110.95,204.12,,,,Single-ply,SBD,M
Boys,124.74,DQ,Ricardo Martinez #5,Rio Vista,114.4,204.12,111.13,,,Single-ply,SBD,M
Boys,124.74+,1,De'vonze Franklin,Snook,144.24,306.17,170.1,233.6,709.87,Single-ply,SBD,M
Boys,124.74+,2,Tyler Flowers,Bosqueville,141.16,272.16,158.76,258.55,689.46,Single-ply,SBD,M
Boys,124.74+,3,Ethan Mendoza,Rogers,130.91,288.03,170.1,204.12,662.24,Single-ply,SBD,M
Boys,124.74+,4,Brandon Webb,Lago Vista,125.01,285.76,129.27,235.87,650.91,Single-ply,SBD,M
Boys,124.74+,5,Connor Murphey,Early,143.43,260.82,147.42,238.14,646.37,Single-ply,SBD,M
Boys,124.74+,6,Adrian Lewis,Cameron Yoe,138.71,242.67,161.03,213.19,616.89,Single-ply,SBD,M
Boys,124.74+,7,Diesel Ceresini,Hamilton,132.9,249.48,124.74,226.8,601.01,Single-ply,SBD,M
Boys,124.74+,8,Angel Gaytan,Chilton,134.81,231.33,140.61,201.85,573.79,Single-ply,SBD,M
Boys,124.74+,9,Sam Molina,Rockdale,147.96,222.26,154.22,192.78,569.26,Single-ply,SBD,M
Boys,124.74+,10,Juan Rodriguez,Clifton,148.14,217.72,140.61,204.12,562.45,Single-ply,SBD,M
Boys,124.74+,DQ,Alex Gamboa,Florence,127.37,256.28,147.42,,,Single-ply,SBD,M
Boys,124.74+,DQ,Carter Crawson,Valley Mills,125.65,,,,,Single-ply,SBD,M
Boys,,NS,Coy Benfer,Valley Mills,,,,,,Single-ply,SBD,M
Boys,,NS,Jacob Winter,Lingleville,,,,,,Single-ply,SBD,M
Boys,,NS,Jared Rocha,Waco Reicher Catholic,,,,,,Single-ply,SBD,M
Boys,,NS,Austin Culver,Bruceville-Eddy,,,,,,Single-ply,SBD,M
Boys,,NS,ZaQuavion Golden,Hearne,,,,,,Single-ply,SBD,M
Boys,,NS,Will Bridgewater,Hamilton,,,,,,Single-ply,SBD,M
